60340 1
60340 2
60340 3
60340 4
60340 5
60340 6
60340 7
60340 8
60340 9
60340 10
60340 11
60340 12
60340 13
60340 14
60340 15
60340 16
60340 17
60340 18
60340 19
60340 20
60340 21
60340 22
60340 23
60340 24
60340 25
60340 26
60340 27
60340 28
60340 29
60340 30
60340 31
60340 32
60340 33
60340 34
60340 35
60340 36
60340 37
60340 38
60340 39
60340 40
60340 41
60340 42
60340 43
60340 44
60340 45
60340 46
60340 47
60340 48
60340 49
60340 50
60340 51
60340 52
60358 12
60358 13
60358 33
60358 35
60358 39
60358 87
60358 112
60359 12
60359 21
60359 43
60359 60
60359 62
60359 68
60359 80
60359 87
60359 88
60359 89
60359 92
60359 99
60359 100
60359 102
60359 108
60359 111
60360 4
60360 11
60360 49
60360 82
60360 110
60360 134
60360 135
60360 139
60360 140
60360 176
60360 177
60360 178
60360 179
60360 180
60360 181
60360 182
60360 183
60360 184
60360 185
60360 186
60360 187
60360 188
60360 189
60360 190
60360 191
60360 192
60360 193
60360 194
60360 195
60360 196
60360 197
60360 198
60360 199
60360 200
60363 18
60363 74
60363 76
60363 77
60363 90
60363 96
60363 127
60363 131
60363 133
60363 143
60363 156
60363 157
60363 182
60365 3
60365 8
60365 16
60365 40
60365 49
60365 50
60365 51
60365 52
60365 53
60365 54
60365 55
60365 56
60365 57
60365 58
60365 59
60365 60
60365 61
60368 10
60368 44
60368 93
60368 99
60368 148
60368 151
60368 179
60368 180
60368 181
60368 182
60368 183
60368 184
60368 185
60368 186
60368 187
60368 188
60368 189
60368 190
60368 191
60368 192
60368 193
60368 194
60368 195
60368 196
60368 197
60368 198
60368 199
60368 200
60370 24
60370 26
60372 1
60372 12
60372 22
60375 43
60378 3
60378 14
60378 33
60378 80
60378 84
60378 110
60378 124
60378 130
60378 131
60378 132
60378 133
60378 134
60378 135
60378 136
60378 137
60378 138
60378 139
60378 140
60378 141
60378 142
60378 143
60378 144
60378 145
60378 146
60378 147
60378 148
60378 149
60378 150
60378 151
60378 152
60378 153
60378 154
60378 155
60378 156
60378 157
60378 158
60378 159
60378 160
60378 161
60378 162
60378 163
60378 164
60378 165
60378 166
60378 167
60378 168
60378 169
60378 170
60378 171
60378 172
60378 173
60378 174
60378 175
60378 176
60378 177
60378 178
60378 179
60378 180
60378 181
60378 182
60378 183
60378 184
60378 185
60378 186
60378 187
60378 188
60378 189
60378 190
60378 191
60378 192
60378 193
60378 194
60385 1
60385 3
60385 4
60385 19
60385 57
60385 75
60385 89
60385 109
60385 121
60385 142
60385 165
60385 187
60385 193
60386 25
60386 26
60386 34
60386 36
60386 99
60386 180
60387 24
60387 39
60387 46
60387 128
60387 141
60387 170
60387 196
60388 12
60388 22
60388 28
60388 40
60388 42
60388 43
60388 46
60388 51
60388 90
60388 92
60388 95
60388 98
60388 109
60388 110
60388 111
60388 112
60388 119
60388 120
60388 121
60389 1
60389 23
60389 77
60389 89
60389 90
60389 174
60389 185
60389 198
60393 8
60393 9
60393 25
60393 26
60393 27
60393 28
60393 29
60393 30
60393 31
60393 32
60393 33
60393 34
60393 35
60393 36
60393 37
60393 38
60393 39
60394 19
60394 39
60394 47
60394 49
60394 50
60394 51
60394 71
60394 89
60394 109
60394 114
60394 159
60394 160
60394 182
60395 3
60395 6
60395 67
60395 104
60395 105
60395 106
60395 122
60395 131
60395 151
60395 171
60395 182
60395 191
60396 4
60396 21
60396 23
60396 24
60396 25
60396 26
60396 27
60396 28
60400 11
60400 74
60400 94
60400 132
60400 138
60401 16
60401 35
60401 50
60401 51
60403 15
60410 1
60410 2
60410 3
60410 4
60410 5
60410 6
60410 7
60410 8
60410 9
60410 10
60410 13
60410 39
60410 40
60410 50
60410 64
60410 78
60410 89
60410 90
60410 98
60410 101
60410 110
60410 115
60410 130
60410 170
60410 182
60415 1
60415 4
60415 6
60415 42
60415 45
60415 56
60416 2
60416 9
60416 16
60416 36
60416 47
60416 48
60416 60
60416 74
60416 101
60416 130
60417 13
60417 70
60417 163
60417 170
60418 28
60418 104
60418 105
60427 78
60427 92
60427 93
60429 2
60429 31
60429 39
60429 40
60430 3
60430 20
60430 21
60430 22
60430 23
60430 24
60430 25
60430 33
60430 34
60437 48
60437 63
60437 101
60437 102
60438 36
60438 43
60438 45
60438 55
60438 63
60438 64
60438 65
60438 66
60438 67
60438 68
60438 69
60438 74
60438 91
60438 92
60440 11
60440 24
60441 33
60441 34
60441 56
60442 9
60442 36
60446 1
60446 7
60446 20
60446 21
60446 24
60446 48
60446 50
60446 90
60446 91
60446 92
60446 93
60446 94
60446 100
60449 20
60449 41
60449 60
60449 61
60449 62
60449 63
60449 64
60449 65
60449 66
60449 67
60449 68
60449 69
60449 70
60449 71
60449 72
60449 73
60449 74
60449 75
60450 16
60450 38
60450 40
60450 41
60450 50
60450 60
60450 66
60450 85
60451 15
60451 36
60451 57
60455 29
60455 31
60456 3
60456 16
60456 24
60457 17
60461 49
60461 75
60461 81
60461 144
60461 159
60461 173
60461 183
60461 184
60461 185
60461 186
60461 193
60461 194
60461 195
60461 196
60461 197
60463 5
60463 9
60463 55
60463 70
60463 72
60464 15
60464 16
60465 26
60465 28
60465 41
60465 48
60465 67
60465 68
60465 84
60467 9
60467 14
60467 15
60467 23
60467 32
60467 42
60467 43
60467 61
60467 64
60467 67
60467 76
60467 80
60467 94
60467 109
60467 133
60467 134
60467 135
60467 136
60467 137
60467 138
60467 139
60592 5
60592 10
60592 20
60592 21
60592 31
60592 34
60592 58
60592 85
60592 88
60595 19
60595 31
60595 32
60595 42
60595 98
60595 156
60595 186
60595 189
60595 190
60595 201
60602 1
60602 9
60602 12
60602 32
60604 1
60604 22
60604 41
60604 47
60604 140
60604 141
60604 142
60604 143
60604 144
60604 145
60604 146
60604 147
60604 148
60604 149
60606 14
60606 29
60606 63
60606 64
60606 115
60606 119
60606 121
60606 145
60606 153
60606 154
60606 160
60606 197
60606 198
60607 1
60607 22
60607 32
60607 48
60607 49
60607 82
60607 83
60607 84
60607 85
60607 86
60608 1
60608 2
60608 3
60608 13
60608 14
60608 15
60608 17
60608 18
60608 26
60608 27
60608 34
60608 35
60608 52
60608 64
60608 167
60609 22
60609 23
60609 64
60609 78
60609 79
60609 95
60609 96
60609 103
60609 119
60609 139
60609 194
60609 195
60613 16
60613 21
60613 33
60613 49
60613 102
60613 106
60613 170
60613 187
60615 15
60615 61
60615 63
60615 105
60615 109
60615 115
60616 24
60616 36
60616 37
60616 41
60616 62
60616 64
60616 73
60616 80
60616 81
60616 86
60616 107
60616 110
60616 113
60616 127
60616 164
60616 165
60616 176
60616 194
60617 7
60617 8
60617 10
60617 11
60617 12
60617 13
60617 23
60617 67
60617 68
60617 69
60617 70
60617 71
60617 72
60617 73
60617 74
60617 75
60617 76
60617 79
60617 104
60617 108
60617 109
60617 111
60617 112
60617 113
60617 114
60617 115
60617 116
60617 120
60617 121
60617 122
60617 125
60617 130
60617 162
60617 172
60617 195
60617 198
60617 199
60617 200
60618 4
60618 5
60618 6
60618 10
60618 29
60618 42
60618 43
60618 44
60618 45
60618 46
60618 47
60618 48
60618 55
60618 56
60618 57
60618 58
60618 59
60618 61
60618 71
60618 93
60618 103
60618 139
60618 154
60618 187
60618 192
60619 22
60619 37
60619 93
60619 96
60619 97
60619 102
60619 106
60619 118
60619 119
60619 149
60619 159
60619 173
60619 178
60619 182
60619 190
60620 6
60620 27
60621 24
60621 35
60621 52
60621 67
60621 68
60621 109
60621 110
60621 120
60621 148
60621 152
60621 187
60622 1
60622 2
60622 3
60622 4
60622 5
60622 6
60622 34
60622 44
60622 47
60622 61
60622 66
60622 69
60622 96
60622 123
60622 126
60623 13
60623 33
60623 56
60623 57
60623 63
60623 64
60623 68
60623 86
60623 87
60623 88
60623 122
60623 170
60623 174
60623 187
60624 9
60624 40
60625 1
60625 36
60625 40
60625 44
60625 45
60625 74
60625 87
60625 92
60625 126
60625 166
60625 167
60625 168
60625 169
60625 177
60625 181
60626 17
60626 18
60626 24
60626 62
60626 104
60626 105
60626 112
60626 114
60626 132
60626 133
60626 189
60627 21
60627 28
60627 41
60627 65
60627 103
60627 114
60627 138
60627 140
60627 154
60627 171
60627 172
60627 173
60627 174
60627 175
60627 176
60627 177
60627 178
60627 179
60627 180
60627 181
60640 5
60640 13
60641 44
60641 55
60641 70
60641 96
60641 124
60641 125
60641 154
60641 158
60641 170
60641 194
60641 198
60642 1
60642 6
60642 7
60642 10
60642 31
60642 33
60642 50
60642 55
60642 56
60642 62
60642 72
60642 77
60642 78
60642 89
60642 100
60642 101
60642 107
60642 112
60642 136
60642 147
60642 167
60642 185
60642 193
60643 32
60643 33
60643 34
60643 35
60643 36
60643 37
60643 38
60643 39
60643 88
60643 89
60643 90
60643 91
60643 92
60643 93
60643 94
60643 95
60643 96
60643 97
60643 98
60643 99
60643 104
60643 110
60643 112
60643 165
60643 166
60643 167
60643 168
60643 169
60643 170
60643 180
60643 181
60643 182
60643 183
60643 184
60643 185
60643 186
60643 187
60643 188
60643 189
60643 190
60643 191
60643 192
60643 193
60643 194
60643 195
60643 196
60643 197
60643 198
60643 199
60643 200
60644 1
60644 2
60644 3
60644 4
60644 5
60644 6
60644 7
60644 12
60644 17
60644 18
60644 19
60644 20
60644 21
60644 22
60644 23
60644 24
60644 25
60644 26
60644 27
60644 28
60644 29
60644 30
60644 31
60644 32
60644 33
60644 34
60644 35
60644 36
60644 37
60644 38
60644 39
60644 40
60644 41
60644 42
60644 43
60644 44
60644 45
60644 65
60644 72
60644 78
60644 93
60644 102
60644 110
60645 3
60645 38
60645 39
60645 43
60645 46
60645 53
60645 64
60645 65
60645 70
60645 88
60645 108
60645 109
60645 110
60645 111
60645 112
60645 115
60645 122
60645 123
60645 126
60645 128
60645 131
60645 132
60645 133
60645 134
60645 135
60645 136
60645 137
60645 138
60645 139
60645 140
60645 141
60645 142
60645 143
60645 144
60645 145
60645 146
60645 147
60645 148
60645 149
60645 150
60645 151
60645 152
60645 153
60645 154
60645 155
60645 156
60645 157
60645 158
60645 159
60645 160
60645 161
60645 162
60645 163
60645 164
60645 165
60645 166
60645 167
60647 22
60647 36
60647 40
60647 65
60647 66
60647 67
60647 96
60647 110
60647 131
60647 132
60647 133
60647 154
60647 182
60649 17
60649 33
60649 34
60649 35
60649 36
60649 37
60649 38
60649 39
60649 40
60649 41
60649 42
60649 43
60649 44
60649 45
60649 51
60649 56
60649 58
60649 95
60649 145
60649 147
60649 189
60649 192
60651 30
60651 32
60651 64
60651 65
60651 66
60651 67
60651 68
60651 69
60651 70
60651 71
60651 72
60651 73
60651 74
60651 75
60651 76
60651 77
60651 78
60651 79
60651 80
60651 81
60651 82
60651 83
60651 84
60651 85
60651 86
60651 87
60651 88
60651 89
60651 145
60651 175
60651 181
60652 4
60652 29
60652 52
60652 105
60652 119
60652 150
60652 165
60652 179
60653 14
60653 16
60653 19
60653 21
60653 36
60653 37
60653 43
60653 44
60653 49
60653 50
60653 73
60653 88
60653 89
60653 90
60653 91
60653 92
60653 93
60653 94
60655 9
60655 40
60655 60
60655 62
60655 72
60655 119
60655 143
60655 147
60655 153
60655 190
60656 17
60656 40
60656 57
60656 133
60656 148
60656 167
60656 171
60656 172
60656 173
60656 174
60656 175
60656 176
60656 177
60656 178
60656 179
60656 180
60656 181
60656 182
60656 183
60656 184
60656 185
60656 186
60656 187
60656 188
60656 189
60656 190
60656 191
60659 22
60659 52
60659 62
60659 64
60659 67
60659 92
60659 109
60659 111
60659 180
60659 189
60659 198
60662 1
60662 2
60662 3
60662 4
60662 5
60662 6
60662 7
60662 8
60662 9
60662 10
60662 30
60662 31
60662 36
60662 37
60662 38
60662 51
60662 55
60662 66
60662 78
60662 79
60662 80
60662 142
60662 175
60662 176
60662 179
60662 182
60671 11
60671 17
60671 24
60671 27
60671 32
60671 35
60671 42
60671 61
60671 72
60671 81
60671 84
60671 100
60671 102
60671 132
60671 164
60671 178
60671 190
60671 196
60672 8
60672 17
60672 21
60672 22
60672 31
60672 32
60672 34
60672 41
60672 53
60672 54
60672 67
60672 92
60672 93
60672 100
60672 116
60672 186
60672 191
60672 197
60673 18
60673 27
60673 30
60673 95
60673 98
60673 122
60673 161
60673 165
60673 170
60673 192
60674 5
60675 4
60675 9
60675 29
60675 68
60681 10
60681 14
60681 21
60681 22
60681 23
60681 24
60681 25
60681 26
60681 27
60681 28
60681 31
60681 41
60681 61
60681 67
60681 90
60681 102
60681 131
60683 18
60683 22
60683 25
60683 44
60683 47
60683 48
60683 81
60683 83
60683 90
60683 95
60683 144
60683 145
60683 170
60683 179
60683 186
60685 7
60685 15
60685 88
60685 107
60685 111
60685 127
60685 128
60685 129
60685 130
60685 131
60685 132
60685 133
60685 134
60685 135
60685 136
60685 137
60685 138
60685 139
60685 140
60685 141
60685 142
60685 143
60685 144
60685 145
60685 146
60685 147
60685 148
60685 149
60685 150
60685 151
60685 152
60685 153
60685 154
60685 155
60685 156
60685 157
60685 158
60685 169
60685 173
60686 4
60686 8
60686 13
60686 19
60686 42
60686 47
60686 60
60686 61
60686 62
60686 63
60686 64
60686 65
60687 5
60687 25
60687 30
60687 37
60687 46
60687 72
60687 80
60687 140
60687 154
60687 155
60687 162
60687 166
60687 188
60687 190
60687 198
60687 199
60687 200
60688 1
60688 18
60688 41
60688 60
60688 70
60688 83
60688 91
60688 92
60688 93
60688 94
60688 95
60688 96
60688 97
60688 98
60688 99
60688 100
60688 101
60688 102
60688 103
60688 104
60688 105
60688 106
60688 107
60688 108
60688 109
60688 115
60688 116
60688 120
60688 127
60688 147
60688 153
60688 168
60688 169
60688 170
60688 171
60688 172
60688 173
60688 174
60688 175
60690 5
60690 9
60690 10
60690 15
60690 19
60690 27
60690 28
60690 32
60690 33
60690 37
60690 38
60690 42
60690 43
60690 44
60690 48
60690 49
60690 53
60690 54
60690 55
60690 56
60690 59
60690 62
60690 69
60690 70
60690 76
60690 85
60690 93
60690 100
60690 104
60690 120
60690 132
60690 146
60690 147
60690 155
60690 159
60690 198
60691 17
60691 24
60691 43
60691 59
60691 61
60691 77
60691 89
60691 124
60691 158
60691 175
60691 177
60691 178
60691 189
60692 6
60692 15
60692 26
60692 29
60692 34
60692 36
60692 60
60692 75
60692 83
60692 98
60692 123
60692 190
60693 7
60693 33
60693 88
60693 92
60693 126
60693 180
60694 65
60694 66
60694 87
60694 88
60694 102
60694 106
60694 149
60694 162
60694 188
60695 17
60695 42
60695 45
60695 51
60706 12
60706 54
60706 82
60706 92
60706 183
60707 9
60707 13
60707 33
60707 40
60707 44
60707 45
60707 57
60707 58
60707 59
60707 62
60707 77
60707 78
60707 79
60707 80
60707 86
60707 91
60707 114
60707 159
60707 197
60707 198
60707 199
60707 200
60708 10
60708 53
60708 67
60708 72
60708 73
60708 80
60708 119
60708 145
60708 158
60708 180
60709 24
60709 28
60709 31
60709 32
60709 33
60709 34
60709 54
60709 59
60709 60
60709 66
60709 107
60709 108
60709 110
60709 119
60709 156
60709 163
60709 172
60710 31
60710 64
60710 77
60710 88
60710 94
60710 109
60710 110
60710 111
60710 112
60710 113
60710 118
60710 119
60710 120
60710 121
60710 122
60710 123
60710 124
60710 125
60710 126
60710 127
60710 128
60710 129
60710 130
60710 131
60710 132
60710 133
60710 134
60710 135
60710 136
60710 137
60710 138
60710 139
60710 140
60710 141
60710 150
60710 160
60710 167
60710 174
60710 183
60710 193
60711 31
60711 36
60711 42
60711 51
60711 56
60711 57
60711 72
60711 92
60711 103
60711 109
60711 113
60711 119
60711 122
60711 134
60711 155
60711 156
60711 157
60711 183
60711 192
60711 197
60711 199
60712 15
60712 19
60712 30
60712 39
60712 48
60712 49
60712 56
60712 90
60712 94
60712 95
60712 98
60712 102
60712 114
60712 136
60712 149
60712 161
60712 167
60712 171
60712 176
60712 177
60712 178
60713 5
60713 31
60713 37
60713 52
60713 56
60713 58
60713 78
60713 120
60713 160
60713 199
60713 200
60713 201
60716 2
60716 8
60716 35
60716 71
60716 90
60716 131
60716 188
60717 20
60717 28
60717 56
60719 5
60719 26
60719 37
60719 58
60719 86
60719 88
60719 89
60719 114
60720 18
60720 66
60720 89
60720 93
60720 94
60720 110
60720 131
60720 141
60724 18
60724 23
60724 29
60724 78
60724 85
60724 100
60724 115
60724 119
60724 120
60724 121
60724 122
60724 123
60724 124
60724 125
60724 126
60724 127
60724 128
60724 129
60724 130
60724 131
60724 132
60724 139
60724 140
60724 141
60724 142
60724 147
60724 148
60724 159
60724 166
60724 173
60724 174
60724 182
60724 190
60724 191
60724 200
60726 3
60726 47
60726 84
60726 85
60726 100
60726 112
60726 140
60726 142
60726 189
60726 191
60727 9
60727 26
60727 61
60727 62
60727 106
60727 145
60727 146
60727 165
60727 166
60727 167
60727 168
60727 169
60727 170
60727 171
60727 172
60727 186
60727 187
60729 27
60729 28
60729 29
60729 31
60729 39
60729 40
60729 41
60729 42
60729 43
60729 44
60729 45
60729 46
60729 47
60729 48
60729 49
60729 50
60729 51
60729 52
60729 65
60729 74
60729 75
60729 117
60729 130
60730 66
60730 75
60730 82
60730 115
60732 18
60732 37
60732 49
60732 55
60732 56
60732 57
60732 58
60732 70
60732 71
60732 112
60732 113
60732 120
60732 131
60732 142
60732 182
60733 5
60733 15
60733 16
60733 17
60733 20
60733 21
60733 22
60733 23
60733 24
60733 25
60733 26
60733 27
60733 28
60733 44
60733 45
60733 93
60733 123
60733 126
60733 129
60733 148
60733 179
60733 188
60734 11
60734 21
60734 22
60734 30
60734 70
60734 72
60734 86
60734 116
60734 118
60734 119
60734 120
60734 132
60734 135
60734 200
60735 1
60735 3
60735 13
60735 43
60735 52
60735 62
60735 72
60735 109
60735 128
60735 129
60735 138
60735 161
60735 181
60736 35
60736 41
60736 48
60736 54
60736 78
60736 82
60736 83
60736 144
60736 164
60736 165
60736 166
60736 167
60736 168
60736 169
60736 170
60736 171
60736 172
60736 173
60736 174
60736 175
60736 176
60736 177
60736 178
60736 179
60736 180
60736 181
60736 182
60736 183
60736 184
60736 185
60736 186
60736 187
60736 188
60736 189
60736 190
60736 191
60736 192
60736 193
60736 194
60737 17
60737 36
60737 37
60737 38
60737 39
60737 40
60737 41
60737 60
60737 82
60737 88
60737 89
60738 29
60738 30
60738 31
60738 32
60738 33
60738 34
60738 35
60738 36
60738 37
60738 38
60738 48
60738 53
60738 61
60738 88
60738 89
60738 97
60738 111
60738 116
60738 128
60738 156
60738 157
60738 176
60738 189
60738 195
60739 1
60739 2
60739 6
60739 12
60739 13
60739 17
60739 18
60739 19
60739 20
60739 21
60739 22
60739 23
60739 24
60739 25
60739 26
60739 27
60739 28
60739 29
60739 30
60739 31
60739 32
60739 33
60739 34
60739 35
60739 36
60739 37
60739 38
60739 39
60739 40
60739 41
60739 42
60739 43
60739 44
60739 45
60739 46
60739 47
60739 48
60739 49
60739 50
60739 51
60740 28
60740 45
60740 46
60740 47
60740 54
60740 92
60740 96
60740 97
60740 104
60740 105
60740 111
60740 117
60740 134
60740 135
60740 155
60740 156
60740 157
60740 167
60740 173
60740 198
60741 15
60741 25
60741 34
60741 41
60741 47
60741 63
60741 70
60741 89
60741 93
60741 99
60741 108
60741 129
60741 165
60741 192
60741 197
60742 17
60742 51
60742 102
60742 108
60742 115
60742 126
60742 128
60742 145
60742 167
60742 168
60742 174
60742 175
60742 184
60742 186
60742 187
60742 188
60742 189
60742 190
60742 191
60742 192
60743 20
60743 27
60743 47
60743 64
60743 69
60743 71
60743 87
60743 91
60743 120
60743 121
60743 171
60743 174
60743 179
60743 181
60743 190
60743 199
60743 201
60746 13
60746 14
60746 27
60746 30
60746 52
60746 54
60746 62
60746 63
60746 66
60746 75
60746 111
60746 123
60746 154
60746 171
60746 191
60746 195
60746 197
60747 29
60747 45
60747 46
60750 15
60750 39
60750 42
60750 44
60750 56
60750 61
60750 74
60750 85
60750 95
60750 97
60750 99
60750 101
60750 122
60750 123
60750 124
60750 125
60750 126
60750 127
60750 128
60750 129
60750 130
60750 131
60750 132
60750 133
60750 191
60750 198
60752 1
60752 5
60752 59
60752 66
60752 68
60752 90
60752 97
60752 98
60752 113
60752 115
60752 116
60752 117
60752 118
60752 120
60752 133
60752 137
60752 166
60752 168
60752 173
60752 195
60753 4
60753 21
60753 32
60754 1
60754 2
60754 3
60754 37
60754 38
60754 39
60754 40
60754 41
60754 43
60754 47
60754 67
60754 68
60754 69
60754 70
60754 71
60754 72
60754 73
60754 74
60754 75
60754 76
60754 77
60754 78
60754 79
60754 83
60754 84
60754 85
60754 86
60754 87
60754 88
60754 93
60754 94
60754 95
60754 99
60754 100
60754 101
60754 102
60754 103
60754 104
60754 108
60754 109
60754 110
60754 111
60754 112
60754 116
60754 117
60754 118
60754 121
60754 125
60754 126
60754 127
60754 128
60754 132
60754 133
60754 134
60754 138
60754 139
60754 140
60754 146
60754 149
60754 150
60754 151
60754 152
60754 153
60754 154
60754 155
60754 156
60754 160
60754 161
60754 162
60754 163
60754 164
60754 165
60754 169
60754 170
60754 171
60754 172
60754 173
60754 174
60754 178
60754 179
60754 180
60754 181
60754 182
60754 183
60754 184
60754 188
60754 189
60754 190
60754 194
60754 195
60754 196
60754 197
60754 198
60754 199
60755 3
60755 81
60755 87
60755 133
60755 141
60755 142
60755 154
60755 177
60755 181
60755 183
60756 11
60756 26
60756 58
60756 60
60756 93
60756 113
60756 124
60756 134
60756 136
60756 138
60756 143
60756 155
60756 195
60758 5
60758 12
60758 19
60758 36
60758 53
60758 66
60758 67
60758 68
60758 91
60758 92
60758 93
60758 94
60758 95
60758 96
60758 97
60758 98
60758 99
60758 100
60758 101
60758 102
60758 103
60758 104
60758 105
60758 126
60758 130
60758 171
60758 178
60758 179
60758 180
60758 181
60758 182
60758 183
60758 184
60758 185
60758 186
60758 187
60758 193
60758 194
60758 195
60758 196
60761 15
60761 23
60761 31
60761 32
60761 33
60761 34
60761 35
60761 36
60761 37
60761 38
60761 39
60761 40
60761 41
60761 42
60761 43
60761 70
60761 101
60761 107
60761 121
60761 135
60761 181
60765 18
60765 22
60765 39
60765 61
60765 62
60765 63
60765 64
60765 65
60767 84
60767 85
60767 151
60767 158
60767 162
60767 163
60767 180
60767 191
60767 196
60769 1
60769 46
60770 2
60770 3
60770 4
60770 5
60770 6
60770 7
60770 8
60770 96
60770 113
60770 133
60770 134
60770 135
60770 169
60770 185
60770 186
60770 187
60770 188
60770 189
60770 190
60770 191
60770 192
60770 193
60770 194
60770 195
60770 196
60773 2
60773 7
60773 9
60773 12
60773 14
60773 23
60773 59
60773 91
60773 114
60773 131
60773 146
60773 170
60773 171
60773 174
60773 175
60774 14
60774 52
60774 85
60774 108
60774 112
60774 133
60774 134
60774 135
60774 136
60774 137
60774 138
60774 139
60774 140
60774 141
60774 142
60774 143
60774 149
60774 189
60774 190
60774 191
60774 192
60774 193
60774 194
60774 195
60774 196
60775 4
60775 5
60775 6
60775 7
60775 8
60775 17
60775 23
60775 30
60775 31
60775 32
60775 33
60775 46
60775 54
60775 68
60775 70
60775 71
60775 72
60775 73
60775 74
60775 75
60775 76
60775 92
60775 102
60775 115
60775 124
60775 134
60775 135
60775 136
60775 137
60775 138
60775 139
60775 140
60775 141
60775 142
60775 143
60775 144
60775 168
60775 169
60775 170
60775 171
60775 172
60775 191
60775 196
60775 197
60776 3
60776 42
60776 75
60776 85
60776 99
60776 103
60776 127
60776 129
60776 141
60776 159
60776 191
60777 89
60777 104
60777 105
60777 106
60777 107
60777 108
60777 109
60777 110
60777 111
60777 114
60777 150
60778 84
60778 140
60778 150
60778 151
60778 152
60778 158
60778 159
60778 164
60779 30
60779 39
60779 73
60779 118
60779 125
60779 134
60779 145
60779 161
60779 182
60779 183
60779 184
60779 185
60779 186
60779 187
60779 197
60780 45
60780 135
60780 136
60780 137
60781 39
60781 120
60781 121
60781 122
60781 123
60781 124
60781 125
60781 126
60781 127
60781 136
60781 164
60781 181
60781 193
60782 29
60782 77
60782 90
60782 97
60782 98
60782 99
60782 100
60782 108
60782 127
60782 137
60782 172
60782 198
60783 2
60783 3
60783 4
60783 5
60783 6
60783 20
60783 38
60783 53
60783 55
60783 56
60783 57
60783 70
60783 72
60783 82
60783 139
60784 10
60784 11
60784 12
60784 13
60784 14
60784 15
60784 16
60784 17
60784 18
60784 19
60784 20
60784 21
60784 22
60784 23
60784 24
60784 32
60784 33
60784 34
60784 35
60784 37
60784 38
60784 41
60784 42
60784 43
60784 57
60784 91
60784 106
60784 127
60784 131
60784 161
60784 191
60785 156
60785 182
60785 183
60785 187
60785 188
60785 189
60785 190
60785 191
60786 4
60786 5
60786 6
60786 7
60786 19
60786 20
60786 21
60786 22
60786 23
60786 24
60786 25
60786 26
60786 27
60786 28
60786 29
60786 30
60786 31
60786 32
60786 33
60786 34
60786 35
60786 36
60786 37
60786 38
60786 39
60786 40
60786 41
60786 42
60786 43
60786 44
60786 45
60786 46
60786 47
60786 48
60786 49
60786 50
60786 51
60786 52
60786 53
60786 54
60786 55
60786 56
60786 57
60786 58
60786 59
60786 60
60786 61
60786 62
60786 63
60786 64
60786 65
60786 66
60786 67
60786 68
60786 69
60786 70
60786 71
60786 72
60786 73
60786 74
60786 75
60786 76
60786 77
60786 78
60786 79
60786 80
60786 81
60786 82
60786 83
60786 84
60786 85
60786 86
60786 87
60786 88
60786 89
60786 90
60786 91
60786 92
60786 93
60786 94
60786 95
60786 96
60786 97
60786 98
60786 99
60786 100
60786 101
60786 102
60786 103
60786 104
60786 105
60786 106
60786 107
60786 108
60786 109
60786 110
60786 111
60786 112
60786 113
60786 114
60786 115
60786 116
60786 117
60786 118
60786 119
60786 120
60786 121
60786 122
60786 123
60786 124
60786 125
60786 126
60786 127
60786 128
60786 129
60786 130
60786 131
60805 37
60805 38
60805 39
60805 65
60805 66
60805 77
60805 87
60805 100
60805 106
60805 124
60805 137
60805 147
60805 160
60805 161
60805 162
60805 163
60805 164
60805 198
60806 1
60806 63
60806 84
60806 112
60806 120
60806 123
60806 126
60806 147
60806 168
60806 178
60806 181
60807 11
60807 56
60807 57
60807 62
60807 63
60807 64
60807 69
60807 70
60807 71
60807 75
60807 76
60807 77
60807 78
60807 95
60807 103
60807 104
60807 105
60807 106
60807 113
60807 131
60807 161
60807 166
60807 167
60807 172
60807 186
60807 197
60833 7
60833 8
60833 9
60833 10
60833 11
60833 12
60833 13
60833 14
60833 15
60833 16
60833 17
60833 18
60833 19
60833 20
60833 21
60833 22
60833 23
60833 24
60833 25
60833 26
60833 27
60833 28
60833 29
60833 30
60833 31
60833 32
60833 33
60833 34
60833 35
60833 36
60833 37
60833 38
60833 39
60833 40
60833 41
60833 42
60833 43
60833 44
60833 45
60833 46
60833 47
60833 48
60833 49
60833 50
60834 9
60834 10
60834 18
60834 20
60834 21
60834 22
60834 23
60834 24
60834 25
60834 26
60834 27
60834 28
60834 29
60834 30
60834 31
