64270 1
64270 2
64270 3
64270 4
64270 5
64270 6
64270 7
64270 8
64270 9
64270 10
64270 11
64270 12
64270 13
64270 14
64270 15
64270 16
64270 17
64270 18
64270 19
64270 20
64270 21
64270 22
64270 23
64270 24
64270 25
64270 26
64270 27
64270 28
64270 29
64270 30
64270 31
64270 32
64270 33
64270 34
64270 35
64270 36
64270 37
64270 38
64270 39
64270 40
64270 41
64270 42
64270 43
64270 44
64270 45
64270 46
64270 47
64270 48
64270 49
64270 50
64270 51
64279 22
64279 23
64279 24
64279 25
64279 50
64280 12
64280 23
64280 24
64280 25
64280 30
64280 31
64280 33
64281 11
64281 12
64281 44
64281 45
64281 51
64283 13
64283 37
64283 139
64283 140
64283 141
64283 142
64283 146
64283 147
64283 148
64283 149
64283 153
64283 154
64283 155
64283 156
64284 39
64284 43
64284 58
64286 3
64286 4
64286 19
64286 20
64286 24
64286 25
64286 67
64286 72
64286 98
64286 149
64286 150
64286 154
64286 172
64287 65
64287 88
64287 122
64287 155
64287 175
64288 13
64288 71
64288 173
64288 179
64289 46
64289 157
64289 158
64290 18
64291 16
64291 32
64291 38
64291 82
64291 84
64292 28
64292 38
64292 61
64292 64
64292 65
64292 66
64292 67
64292 98
64292 119
64292 167
64294 51
64294 91
64294 93
64294 94
64294 95
64294 96
64294 97
64294 98
64294 99
64294 100
64294 101
64294 102
64294 103
64294 104
64294 105
64294 106
64296 7
64296 27
64296 48
64296 125
64296 177
64296 178
64296 179
64296 180
64296 181
64296 182
64296 183
64296 184
64296 185
64296 186
64296 187
64296 188
64296 189
64296 190
64296 191
64296 192
64296 193
64297 9
64297 10
64297 11
64297 12
64297 13
64297 14
64297 15
64297 16
64297 17
64297 18
64297 19
64297 20
64297 21
64297 22
64297 23
64297 24
64297 25
64297 26
64297 27
64297 28
64297 29
64297 30
64297 31
64297 32
64297 33
64297 34
64297 35
64297 36
64297 37
64297 38
64297 39
64297 40
64297 41
64297 42
64297 43
64297 44
64297 45
64297 46
64297 47
64297 48
64297 49
64297 50
64297 51
64297 52
64297 53
64297 54
64297 55
64297 56
64297 57
64297 58
64297 59
64297 60
64297 61
64297 62
64297 63
64297 64
64297 65
64297 66
64297 67
64297 68
64297 69
64297 70
64298 41
64298 74
64298 122
64299 36
64299 37
64299 38
64299 55
64299 88
64299 111
64299 123
64299 152
64299 199
64300 16
64300 23
64300 156
64300 188
64301 56
64301 64
64301 132
64307 27
64307 28
64307 37
64307 38
64307 39
64307 40
64307 41
64307 42
64307 102
64307 122
64307 123
64307 147
64307 172
64307 188
64307 191
64308 36
64308 64
64308 93
64308 182
64309 7
64309 43
64309 72
64309 136
64309 137
64309 138
64309 139
64309 140
64309 141
64309 142
64309 143
64309 144
64309 145
64313 65
64313 89
64313 108
64313 120
64313 127
64313 135
64313 148
64313 149
64313 150
64313 151
64313 152
64313 153
64313 154
64313 155
64313 156
64313 157
64313 158
64313 159
64313 160
64313 161
64313 162
64313 163
64315 49
64315 76
64316 8
64316 21
64316 89
64316 134
64316 185
64316 186
64317 8
64317 32
64317 58
64317 72
64317 81
64317 84
64317 108
64317 133
64317 134
64317 178
64319 18
64320 55
64320 69
64320 137
64320 145
64320 172
64320 196
64321 6
64321 23
64321 31
64321 47
64322 8
64322 41
64322 42
64322 43
64322 44
64322 45
64324 10
64324 11
64324 21
64325 51
64325 62
64325 63
64325 111
64325 199
64325 200
64327 9
64327 12
64327 59
64327 60
64327 61
64327 109
