94694 34
94696 20
94708 51
94710 63
94734 39
94734 41
94734 56
94735 15
94735 20
94737 1
94737 2
94737 3
94737 4
94737 5
94737 6
94737 7
94737 8
94737 9
94737 10
94737 11
94737 12
94737 13
94737 14
94737 15
94737 16
94737 17
94737 18
94737 19
94737 20
94737 21
94737 22
94737 23
94737 24
94737 25
94737 26
94737 27
94737 28
94737 29
94737 30
94737 31
94737 32
94737 33
94737 34
94737 35
94737 36
94737 37
94737 38
94737 39
94737 40
94737 41
94737 42
94737 43
94737 44
94737 45
94737 46
94737 47
94737 48
94737 49
94737 50
94737 51
94737 52
94737 53
94737 54
94737 55
94737 56
94737 57
94737 58
94737 61
94737 62
94737 63
94737 64
94737 65
94737 66
94737 67
94737 99
94738 1
94738 3
94738 9
94738 10
94752 44
94755 52
94755 58
94755 59
94755 68
94755 69
94757 16
94759 42
94760 57
94761 16
94762 44
94764 61
94768 40
94768 80
94773 29
94773 34
94773 68
94774 12
94774 18
94775 51
94777 47
94779 23
94779 74
94779 75
94779 99
94782 70
94782 89
94782 93
94783 10
94784 70
94784 86
94794 6
94798 21
94798 100
94799 76
94800 42
94809 28
94810 50
94820 45
94822 68
94822 84
94823 4
94823 8
94829 83
94839 10
94842 13
94843 60
94843 77
open
94694 31
94694 34
94694 39
94694 89
94696 20
94705 91
94712 88
94713 7
94713 70
94734 17
94734 28
94734 40
94737 1
94737 2
94737 3
94737 4
94737 5
94737 6
94737 7
94737 8
94737 9
94737 10
94737 11
94737 12
94737 13
94737 14
94737 15
94737 16
94737 17
94737 18
94737 19
94737 20
94737 21
94737 22
94737 23
94737 24
94737 25
94737 26
94737 27
94737 28
94737 29
94737 30
94737 31
94737 32
94737 33
94737 34
94737 35
94737 36
94737 37
94737 38
94737 39
94737 40
94737 41
94737 42
94737 43
94737 44
94737 45
94737 46
94737 47
94737 48
94737 49
94737 50
94737 51
94737 52
94737 53
94737 54
94737 55
94737 56
94737 57
94737 58
94737 61
94737 62
94737 63
94737 64
94737 65
94737 66
94737 67
94737 99
94752 7
94752 21
94752 95
94754 12
94755 52
94755 58
94755 59
94755 68
94755 69
94755 81
94760 57
94762 44
94763 18
94764 61
94768 40
94773 29
94773 34
94775 51
94777 47
94779 81
94782 37
94782 70
94782 89
94782 93
94783 10
94784 70
94784 86
94794 6
94795 82
94798 21
94799 76
94809 28
94810 50
94823 8
94843 60
94843 77
open
94694 31
94694 34
94694 54
94694 68
94694 89
94696 20
94705 91
94714 2
94714 72
94737 1
94737 2
94737 3
94737 4
94737 5
94737 6
94737 7
94737 8
94737 9
94737 10
94737 11
94737 12
94737 13
94737 14
94737 15
94737 16
94737 17
94737 18
94737 19
94737 20
94737 21
94737 22
94737 23
94737 24
94737 25
94737 26
94737 27
94737 28
94737 29
94737 30
94737 31
94737 32
94737 33
94737 34
94737 35
94737 36
94737 37
94737 38
94737 39
94737 40
94737 41
94737 42
94737 43
94737 44
94737 45
94737 46
94737 47
94737 48
94737 49
94737 50
94737 51
94737 52
94737 53
94737 54
94737 55
94737 56
94737 57
94737 58
94737 61
94737 62
94737 63
94737 64
94737 65
94737 66
94737 67
94737 77
94737 90
94737 99
94738 9
94750 8
94751 74
94751 78
94752 21
94752 96
94753 24
94755 52
94755 58
94755 59
94755 68
94755 69
94758 91
94760 5
94760 57
94762 44
94763 18
94764 61
94768 40
94773 29
94773 34
94775 51
94777 47
94778 46
94779 81
94782 70
94782 89
94782 93
94783 10
94783 58
94784 70
94784 86
94794 6
94795 48
94798 21
94799 76
94805 3
94808 8
94809 28
94810 50
94823 8
94827 10
94827 66
94829 81
94843 60
94843 77
open
94694 31
94694 34
94696 20
94710 63
94734 13
94734 35
94734 58
94735 20
94737 1
94737 2
94737 3
94737 4
94737 5
94737 6
94737 7
94737 8
94737 9
94737 10
94737 11
94737 12
94737 13
94737 14
94737 15
94737 16
94737 17
94737 18
94737 19
94737 20
94737 21
94737 22
94737 23
94737 24
94737 25
94737 26
94737 27
94737 28
94737 29
94737 30
94737 31
94737 32
94737 33
94737 34
94737 35
94737 36
94737 37
94737 38
94737 39
94737 40
94737 41
94737 42
94737 43
94737 44
94737 45
94737 46
94737 47
94737 48
94737 49
94737 50
94737 51
94737 52
94737 53
94737 54
94737 55
94737 56
94737 57
94737 58
94737 61
94737 62
94737 63
94737 64
94737 65
94737 66
94737 67
94737 84
94737 99
94738 8
94755 52
94755 58
94755 59
94760 57
94762 44
94762 81
94764 61
94768 40
94773 29
94773 34
94773 90
94775 51
94777 47
94779 81
94779 90
94782 70
94782 89
94782 93
94783 10
94784 70
94784 86
94792 44
94793 36
94794 6
94795 48
94798 21
94798 41
94799 76
94809 28
94810 50
94823 8
94829 83
94840 35
94840 69
94843 60
94843 77
open
94694 19
94694 31
94694 34
94694 48
94694 49
94696 20
94713 33
94714 73
94734 19
94734 50
94734 56
94735 8
94735 14
94735 26
94737 1
94737 2
94737 3
94737 4
94737 5
94737 6
94737 7
94737 8
94737 9
94737 10
94737 11
94737 12
94737 13
94737 14
94737 15
94737 16
94737 17
94737 18
94737 19
94737 20
94737 21
94737 22
94737 23
94737 24
94737 25
94737 26
94737 27
94737 28
94737 29
94737 30
94737 31
94737 32
94737 33
94737 34
94737 35
94737 36
94737 37
94737 38
94737 39
94737 40
94737 41
94737 42
94737 43
94737 44
94737 45
94737 46
94737 47
94737 48
94737 49
94737 50
94737 51
94737 52
94737 53
94737 54
94737 55
94737 56
94737 57
94737 58
94737 61
94737 62
94737 63
94737 64
94737 65
94737 66
94737 67
94737 76
94737 85
94737 99
94755 52
94755 58
94755 59
94755 68
94755 69
94760 57
94762 44
94764 61
94768 40
94769 33
94769 45
94773 29
94773 34
94775 51
94777 47
94780 26
94782 70
94782 89
94782 93
94783 10
94784 70
94784 86
94792 56
94793 71
94794 6
94795 17
94795 48
94798 21
94799 76
94799 84
94805 3
94809 28
94810 50
94819 95
94822 8
94823 8
94829 83
94839 1
94840 78
94840 88
94841 25
94843 48
94843 60
94843 77
open
94694 31
94694 34
94696 20
94734 52
94734 59
94737 1
94737 2
94737 3
94737 4
94737 5
94737 6
94737 7
94737 8
94737 9
94737 10
94737 11
94737 12
94737 13
94737 14
94737 15
94737 16
94737 17
94737 18
94737 19
94737 20
94737 21
94737 22
94737 23
94737 24
94737 25
94737 26
94737 27
94737 28
94737 29
94737 30
94737 31
94737 32
94737 33
94737 34
94737 35
94737 36
94737 37
94737 38
94737 39
94737 40
94737 41
94737 42
94737 43
94737 44
94737 45
94737 46
94737 47
94737 48
94737 49
94737 50
94737 51
94737 52
94737 53
94737 54
94737 55
94737 56
94737 57
94737 58
94737 61
94737 62
94737 63
94737 64
94737 65
94737 66
94737 67
94737 73
94737 91
94737 96
94737 99
94738 4
94755 52
94755 58
94755 59
94755 68
94755 69
94757 90
94760 57
94762 44
94764 61
94768 40
94773 29
94773 34
94775 51
94777 47
94782 70
94782 89
94782 93
94783 10
94784 70
94784 86
94794 6
94795 48
94798 21
94799 76
94809 28
94810 50
94810 52
94820 41
94823 8
94829 83
94843 60
94843 77
open
94694 4
94694 31
94694 34
94694 35
94694 90
94696 20
94737 1
94737 2
94737 3
94737 4
94737 5
94737 6
94737 7
94737 8
94737 9
94737 10
94737 11
94737 12
94737 13
94737 14
94737 15
94737 16
94737 17
94737 18
94737 19
94737 20
94737 21
94737 22
94737 23
94737 24
94737 25
94737 26
94737 27
94737 28
94737 29
94737 30
94737 31
94737 32
94737 33
94737 34
94737 35
94737 36
94737 37
94737 38
94737 39
94737 40
94737 41
94737 42
94737 43
94737 44
94737 45
94737 46
94737 47
94737 48
94737 49
94737 50
94737 51
94737 52
94737 53
94737 54
94737 55
94737 56
94737 57
94737 58
94737 61
94737 62
94737 63
94737 64
94737 65
94737 66
94737 67
94737 99
94755 52
94755 58
94755 59
94755 68
94755 69
94760 57
94762 44
94764 61
94768 40
94773 29
94773 34
94775 51
94777 47
94779 81
94780 26
94782 70
94782 89
94782 93
94783 10
94784 70
94784 86
94794 6
94798 21
94799 76
94809 28
94810 50
94823 8
94827 66
94843 60
94843 77
open
94694 31
94694 34
94696 20
94734 28
94734 45
94735 15
94737 1
94737 2
94737 3
94737 4
94737 5
94737 6
94737 7
94737 8
94737 9
94737 10
94737 11
94737 12
94737 13
94737 14
94737 15
94737 16
94737 17
94737 18
94737 19
94737 20
94737 21
94737 22
94737 23
94737 24
94737 25
94737 26
94737 27
94737 28
94737 29
94737 30
94737 31
94737 32
94737 33
94737 34
94737 35
94737 36
94737 37
94737 38
94737 39
94737 40
94737 41
94737 42
94737 43
94737 44
94737 45
94737 46
94737 47
94737 48
94737 49
94737 50
94737 51
94737 52
94737 53
94737 54
94737 55
94737 56
94737 57
94737 58
94737 61
94737 62
94737 63
94737 64
94737 65
94737 66
94737 67
94737 99
94738 4
94755 52
94755 58
94755 68
94755 69
94760 26
94760 57
94762 44
94764 61
94768 40
94773 29
94773 34
94773 90
94775 51
94777 47
94782 70
94782 89
94782 93
94783 10
94784 70
94784 86
94785 37
94794 6
94795 48
94798 21
94799 76
94802 57
94809 28
94810 50
94823 8
94829 83
94842 77
94843 60
94843 77