93193 25
93195 8
93195 15
93195 20
93195 80
93197 97
93198 80
93199 93
93205 35
93205 71
93209 6
93216 67
93219 14
93219 79
93219 92
93222 50
93223 51
93223 94
93224 15
93224 85
93225 68
93229 66
93231 1
93231 2
93231 3
93231 4
93231 5
93231 6
93231 7
93231 8
93231 9
93231 10
93231 11
93231 12
93231 13
93231 14
93231 15
93231 16
93231 17
93231 18
93231 19
93231 20
93231 21
93231 22
93231 23
93231 24
93231 25
93231 26
93231 27
93231 28
93231 29
93231 30
93231 32
93231 33
93231 34
93231 35
93231 36
93231 37
93231 38
93231 39
93231 40
93231 41
93231 42
93231 43
93231 44
93231 45
93231 46
93237 8
93238 1
93241 59
93241 66
93241 68
93241 69
93241 70
93241 71
93241 72
93241 73
93241 74
93241 75
93241 76
93241 77
93241 78
93241 79
93241 80
93241 81
93241 82
93241 83
93241 84
93241 85
93241 86
93241 87
93241 88
93241 89
93241 90
93246 1
93246 2
93246 3
93246 6
93246 7
93246 8
93246 9
93246 10
93246 11
93246 12
93246 13
93246 14
93246 15
93246 16
93246 17
93246 18
93246 19
93246 20
93246 21
93246 22
93246 23
93246 24
93246 25
93246 26
93246 27
93246 28
93246 29
93246 30
93246 31
93246 32
93246 33
93246 34
93246 35
93246 36
93246 37
93246 38
93246 39
93246 40
93246 41
93246 42
93246 43
93246 44
93246 45
93246 46
93246 47
93246 48
93246 49
93246 50
93246 51
93246 52
93246 53
93246 54
93246 56
93246 57
93246 58
93246 59
93246 60
93246 61
93246 62
93246 63
93246 64
93246 65
93246 66
93246 67
93246 68
93246 69
93246 70
93246 71
93246 72
93246 73
93246 74
93246 75
93246 76
93246 77
93246 78
93246 79
93246 80
93246 81
93246 82
93246 83
93246 84
93246 85
93246 86
93246 87
93246 88
93246 89
93246 90
93246 91
93246 92
93246 93
93246 94
93246 95
93246 96
93246 97
93246 98
93246 99
93246 100
93249 1
93249 2
93249 3
93249 4
93249 5
93249 6
93249 7
93249 8
93249 9
93249 10
93249 11
93249 12
93249 13
93249 14
93249 15
93249 16
93249 17
93249 18
93250 1
93250 2
93250 3
93250 4
93250 5
93250 6
93250 7
93250 8
93250 9
93250 10
93250 12
93250 13
93250 14
93250 15
93250 16
93250 17
93250 18
93250 19
93250 20
93250 21
93250 22
93250 23
93250 24
93250 25
93250 26
93250 27
93250 28
93250 29
93250 30
93250 31
93250 32
93250 33
93250 34
93250 35
93250 36
93250 37
93250 39
93250 40
93250 41
93250 42
93250 43
93250 44
93250 45
93250 46
93250 47
93250 48
93250 49
93250 50
93250 51
93250 52
93250 53
93250 54
93250 55
93250 56
93250 64
93250 65
93250 66
93250 67
93250 68
93250 69
93250 70
93250 71
93250 72
93250 73
93250 74
93250 75
93250 76
93250 77
93250 79
93250 80
93250 81
93250 82
93250 83
93250 84
93250 85
93250 87
93250 88
93250 89
93250 90
93250 91
93250 92
93250 93
93250 94
93250 96
93250 97
93250 98
93250 99
93250 100
93255 1
93255 2
93255 3
93255 4
93255 5
93255 6
93255 7
93255 8
93255 9
93255 10
93255 11
93255 12
93255 13
93255 14
93255 15
93255 16
93255 17
93255 18
93255 19
93255 20
93255 21
93255 22
93255 23
93255 26
93255 27
93255 28
93255 29
93255 30
93255 39
93255 40
93255 41
93255 42
93255 43
93255 44
93255 45
93255 46
93255 47
93255 48
93255 49
93255 50
93255 51
93255 52
93255 53
93255 54
93255 55
93255 56
93255 57
93255 58
93255 59
93255 60
93255 61
93255 62
93255 63
93255 64
93255 65
93255 66
93255 67
93255 68
93255 69
93255 70
93255 71
93255 72
93255 73
93255 74
93255 75
93255 76
93255 77
93255 78
93255 79
93255 80
93255 81
93255 82
93255 83
93255 84
93255 85
93255 86
93255 87
93255 88
93255 89
93255 90
93255 91
93255 92
93255 93
93255 94
93255 95
93255 96
93255 97
93255 98
93255 99
93255 100
93256 3
93256 20
93257 4
93257 6
93258 84
93258 85
93258 86
93258 87
93258 88
93258 89
93258 90
93258 91
93258 92
93258 93
93258 94
93258 95
93258 96
93258 97
93258 98
93258 99
93258 100
93259 12
93259 66
93259 67
93259 68
93259 69
93259 70
93259 71
93259 72
93259 73
93261 1
93261 2
93261 3
93261 62
93261 63
93261 64
93261 65
93261 66
93261 67
93263 1
93263 2
93263 3
93263 73
93263 86
93279 1
93279 2
93279 3
93279 4
93279 5
93279 6
93279 7
93279 8
93279 9
93279 10
93279 11
93279 12
93279 14
93279 15
93279 16
93279 17
93279 18
93279 19
93279 20
93279 21
93279 22
93279 23
93279 24
93279 25
93279 26
93279 27
93279 28
93279 29
93279 30
93279 31
93279 32
93279 33
93279 34
93279 35
93279 36
93279 37
93279 38
93279 39
93279 40
93279 41
93279 42
93279 43
93279 44
93279 45
93279 46
93279 47
93279 48
93279 49
93279 50
93279 51
93279 52
93279 53
93279 54
93279 55
93279 56
93279 57
93279 58
93279 59
93279 60
93279 61
93281 25
93281 35
93281 61
93281 73
93282 46
93283 1
93283 2
93283 3
93283 4
93283 5
93283 6
93283 7
93283 8
93283 9
93283 10
93283 11
93283 12
93283 13
93283 14
93283 15
93283 16
93283 17
93283 18
93283 19
93283 20
93283 21
93283 22
93283 23
93283 24
93283 25
93283 26
93283 27
93283 28
93283 29
93283 30
93283 31
93283 32
93283 33
93283 34
93283 35
93283 36
93283 37
93283 38
93283 39
93283 40
93283 41
93283 42
93283 43
93283 44
93283 45
93283 46
93283 47
93283 48
93283 49
93283 50
93283 51
93283 52
93283 53
93283 54
93283 55
93283 56
93283 57
93283 58
93283 59
93283 60
93283 61
93283 62
93283 63
93283 64
93283 65
93283 68
93283 69
93283 70
93283 71
93283 72
93283 73
93283 74
93283 75
93283 76
93283 77
93283 78
93283 79
93283 80
93283 81
93283 82
93283 83
93283 84
93283 85
93283 86
93283 87
93283 88
93283 89
93283 90
93283 91
93283 92
93283 93
93283 94
93283 95
93283 96
93283 97
93283 98
93283 99
93283 100
93284 1
93284 2
93284 3
93284 4
93284 5
93284 6
93284 7
93284 8
93284 9
93284 10
93284 11
93284 12
93284 13
93284 14
93284 15
93284 16
93284 17
93284 18
93284 19
93284 20
93284 21
93284 22
93284 23
93284 24
93284 25
93284 26
93284 27
93284 28
93284 29
93284 30
93284 31
93284 32
93284 33
93284 34
93284 35
93284 36
93284 37
93284 38
93284 39
93284 40
93284 41
93284 42
93284 43
93284 44
93284 45
93284 46
93284 47
93284 48
93284 49
93284 50
93284 51
93284 52
93284 53
93284 54
93284 55
93284 56
93284 57
93284 58
93284 59
93284 60
93284 61
93284 62
93284 63
93284 64
93284 65
93284 66
93284 67
93284 68
93284 69
93284 70
93284 71
93284 72
93284 73
93284 74
93284 75
93284 76
93284 77
93284 78
93284 79
93284 80
93284 81
93284 82
93284 83
93284 84
93284 85
93284 86
93284 87
93284 88
93284 89
93284 90
93284 91
93284 92
93284 93
93284 94
93284 95
93284 96
93284 97
93284 98
93284 99
93284 100
93294 59
93296 32
93297 3
93297 16
93297 44
93297 45
93297 46
93297 47
93297 48
93297 49
93297 50
93297 51
93297 52
93297 53
93297 54
93297 55
93297 56
93297 57
93297 58
93297 59
93297 60
93297 61
93297 62
93297 63
93297 64
93297 65
93297 66
93297 67
93297 68
93297 69
93297 70
93297 71
93297 72
93297 73
93297 74
93297 75
93297 76
93297 77
93297 78
93297 79
93297 80
93297 81
93297 82
93297 83
93297 84
93297 85
93297 86
93297 87
93297 88
93297 89
93297 90
93297 91
93297 92
93297 93
93297 94
93297 95
93297 96
93297 97
93297 98
93297 99
93297 100
93298 1
93298 2
93298 3
93298 4
93298 5
93298 6
93298 7
93298 8
93298 9
93298 10
93298 11
93298 12
93298 13
93298 14
93298 15
93298 16
93298 17
93298 18
93298 19
93298 20
93298 21
93298 22
93298 23
93298 24
93298 25
93298 26
93298 27
93298 28
93298 29
93298 30
93298 31
93298 32
93298 33
93298 34
93298 35
93298 36
93298 37
93298 38
93298 39
93298 40
93298 41
93298 42
93298 44
93298 45
93298 46
93298 47
93298 48
93298 49
93298 50
93298 51
93298 52
93298 53
93298 54
93298 55
93298 56
93298 57
93298 58
93298 59
93298 60
93298 61
93298 62
93298 63
93298 64
93298 65
93298 66
93298 67
93298 68
93298 69
93298 70
93298 71
93298 72
93298 73
93298 74
93298 75
93298 76
93298 77
93298 78
93299 1
93299 2
93299 3
93299 4
93299 5
93299 6
93299 7
93299 8
93299 9
93299 10
93299 11
93299 12
93299 13
93299 14
93299 15
93299 16
93299 17
93299 18
93299 19
93299 20
93299 21
93299 22
93299 23
93299 24
93299 25
93299 26
93299 27
93299 28
93299 29
93299 30
93299 31
93299 32
93299 33
93299 34
93299 35
93299 36
93299 37
93299 38
93299 39
93299 40
93299 41
93299 42
93299 43
93299 44
93299 45
93299 46
93299 47
93299 48
93299 49
93299 50
93299 51
93299 52
93299 53
93299 54
93299 55
93299 56
93299 57
93299 58
93299 59
93299 60
93299 61
93299 62
93299 63
93299 64
93299 65
93299 66
93299 67
93299 68
93299 69
93299 70
93299 71
93299 72
93299 73
93299 74
93299 75
93299 76
93299 77
93299 78
93299 79
93299 80
93299 81
93299 82
93299 83
93299 84
93299 85
93299 86
93299 87
93299 88
93299 89
93299 90
93299 91
93299 92
93299 93
93299 94
93299 95
93299 96
93299 97
93299 98
93299 99
93299 100
93300 1
93300 2
93300 3
93300 4
93300 5
93300 6
93300 7
93300 8
93300 9
93300 10
93300 11
93300 12
93300 13
93300 14
93300 27
93301 1
93301 55
93301 56
93301 57
93301 58
93301 59
93301 60
93301 61
93301 62
93301 63
93301 64
93301 65
93301 66
93301 67
93301 68
93301 69
93301 70
93301 71
93301 72
93301 73
93301 74
93301 75
93301 76
93301 77
93301 78
93301 79
93301 80
93301 81
93301 82
93301 83
93301 84
93301 85
93301 86
93301 87
93301 88
93301 89
93301 90
93301 91
93301 92
93301 93
93301 94
93301 95
93301 96
93301 97
93301 98
93301 99
93301 100
93302 1
93302 2
93302 3
93302 4
93302 5
93302 7
93302 8
93302 9
93302 10
93302 11
93302 12
93302 13
93302 14
93302 15
93302 16
93302 17
93302 18
93302 19
93302 20
93302 21
93302 22
93302 23
93302 24
93302 25
93302 26
93302 27
93302 28
93302 29
93302 30
93302 31
93302 32
93302 33
93302 34
93302 35
93302 36
93302 37
93302 38
93302 39
93302 40
93302 41
93302 42
93302 43
93302 44
93302 45
93302 46
93302 47
93302 48
93302 49
93302 50
93302 51
93302 52
93302 53
93302 54
93302 55
93302 56
93302 57
93302 58
93302 59
93302 60
93302 61
93302 62
93302 63
93302 64
93302 65
93302 66
93302 67
93302 68
93302 69
93302 70
93302 71
93302 72
93302 73
93302 74
93302 75
93302 76
93302 77
93302 78
93302 79
93302 80
93302 88
93302 89
93302 90
93302 91
93302 92
93302 93
93302 94
93302 95
93302 96
93302 97
93302 98
93302 99
93302 100
93303 3
93303 4
93303 5
93303 6
93303 7
93303 8
93303 9
93303 10
93303 11
93303 12
93303 13
93303 14
93303 15
93303 16
93303 17
93303 18
93303 19
93303 20
93303 21
93303 22
93303 23
93303 24
93303 25
93303 26
93303 27
93303 28
93303 29
93303 30
93303 31
93303 32
93303 33
93303 34
93303 35
93303 36
93303 37
93303 38
93303 39
93303 40
93303 41
93303 42
93303 43
93303 44
93303 45
93303 46
93303 47
93303 48
93303 49
93303 50
93303 51
93303 52
93303 53
93303 54
93303 55
93303 56
93303 57
93303 58
93303 59
93303 60
93303 61
93303 62
93303 63
93303 64
93303 65
93303 66
93303 67
93303 68
93303 69
93303 70
93303 71
93303 72
93303 73
93303 74
93303 76
93303 77
93303 78
93303 79
93303 80
93303 81
93303 82
93303 83
93303 84
93303 85
93303 86
93303 87
93303 88
93303 89
93303 90
93303 91
93303 92
93303 93
93303 94
93303 95
93303 96
93303 97
93303 98
93303 99
93303 100
93304 1
93304 2
93304 3
93304 4
93304 5
93304 6
93304 7
93304 8
93304 9
93304 10
93304 11
93304 12
93304 13
93304 14
93304 15
93304 16
93304 17
93304 18
93304 19
93304 20
93304 21
93304 22
93304 23
93304 24
93304 25
93304 26
93304 27
93304 28
93304 29
93304 30
93304 31
93304 32
93304 33
93304 34
93304 35
93304 36
93304 37
93304 38
93304 39
93304 40
93304 41
93304 42
93304 43
93304 44
93304 45
93304 46
93304 47
93304 49
93304 50
93304 51
93304 52
93304 53
93304 54
93304 55
93304 56
93304 57
93304 58
93304 59
93304 60
93304 61
93304 62
93304 63
93304 64
93304 65
93304 66
93304 67
93304 68
93304 69
93304 70
93304 71
93304 72
93304 73
93304 74
93304 75
93304 76
93304 77
93305 1
93305 2
93305 3
93305 4
93305 5
93305 6
93305 7
93305 8
93305 9
93305 10
93305 11
93305 12
93305 13
93305 14
93305 15
93305 16
93305 17
93305 18
93305 19
93305 20
93305 21
93305 22
93305 23
93305 24
93305 25
93305 26
93305 27
93305 28
93305 29
93305 30
93305 31
93305 32
93305 33
93305 34
93305 35
93305 36
93305 37
93305 38
93305 39
93305 40
93305 41
93305 42
93305 43
93305 44
93305 46
93305 47
93305 48
93305 49
93305 50
93305 51
93305 52
93305 58
93305 59
93305 60
93305 61
93305 62
93305 63
93305 64
93305 65
93305 66
93305 67
93305 73
93305 74
93305 75
93305 76
93305 77
93305 78
93305 79
93305 80
93305 81
93305 82
93305 83
93305 84
93305 85
93305 86
93305 87
93305 88
93305 89
93305 90
93305 91
93305 92
93305 93
93305 94
93305 95
93305 96
93305 97
93305 98
93305 99
93305 100
93306 1
93306 2
93306 3
93306 4
93306 5
93306 6
93306 7
93306 8
93306 9
93306 10
93306 11
93306 12
93306 13
93306 14
93306 15
93306 16
93306 20
93306 21
93306 23
93306 25
93306 26
93306 27
93306 28
93306 30
93306 31
93306 32
93306 33
93306 35
93306 36
93306 37
93306 38
93306 39
93306 40
93306 41
93306 42
93306 43
93306 44
93306 45
93306 46
93306 47
93306 48
93306 49
93306 50
93306 51
93306 52
93306 53
93306 54
93306 55
93306 56
93306 57
93306 58
93306 59
93306 60
93306 69
93306 70
93306 71
93306 72
93306 73
93306 74
93306 75
93306 76
93306 77
93306 78
93306 79
93307 44
93312 4
93312 24
93312 66
93312 83
93313 3
93315 33
93315 61
93315 63
93317 28
93317 29
93317 30
93317 35
93321 84
93322 14
93322 51
93324 45
93324 62
open
93188 13
93188 51
93192 39
93192 79
93192 80
93192 81
93192 82
93193 25
93195 4
93195 5
93195 6
93195 7
93195 8
93195 9
93195 10
93195 11
93195 12
93195 15
93195 63
93196 84
93197 97
93198 50
93199 11
93205 35
93205 71
93206 47
93206 63
93207 88
93207 99
93218 41
93220 27
93223 33
93223 34
93224 32
93229 66
93231 1
93231 2
93231 3
93231 4
93231 5
93231 6
93231 7
93231 8
93231 9
93231 10
93231 11
93231 12
93231 13
93231 14
93231 15
93231 16
93231 17
93231 18
93231 19
93231 20
93231 21
93231 22
93231 23
93231 24
93231 25
93231 26
93231 27
93231 28
93231 29
93231 30
93231 32
93231 33
93231 34
93231 35
93231 36
93231 37
93231 38
93231 39
93231 40
93231 41
93231 42
93231 43
93231 44
93231 45
93231 46
93238 1
93240 56
93241 51
93241 52
93241 53
93241 54
93241 56
93241 57
93241 58
93241 59
93241 60
93241 62
93241 64
93241 65
93241 66
93241 67
93241 68
93241 69
93241 70
93241 71
93241 72
93241 73
93241 74
93241 75
93241 76
93241 77
93241 78
93241 79
93241 80
93241 81
93241 82
93241 83
93241 84
93241 85
93241 86
93241 87
93241 88
93241 89
93241 90
93246 1
93246 2
93246 3
93246 6
93246 7
93246 8
93246 9
93246 10
93246 11
93246 12
93246 13
93246 14
93246 15
93246 16
93246 17
93246 18
93246 19
93246 20
93246 21
93246 22
93246 23
93246 24
93246 25
93246 26
93246 27
93246 28
93246 29
93246 30
93246 31
93246 32
93246 33
93246 34
93246 35
93246 36
93246 37
93246 38
93246 39
93246 40
93246 41
93246 42
93246 43
93246 44
93246 45
93246 46
93246 47
93246 48
93246 49
93246 50
93246 51
93246 52
93246 53
93246 54
93246 56
93246 57
93246 58
93246 59
93246 60
93246 61
93246 62
93246 63
93246 64
93246 65
93246 66
93246 67
93246 68
93246 69
93246 70
93246 71
93246 72
93246 73
93246 74
93246 75
93246 76
93246 77
93246 78
93246 79
93246 80
93246 81
93246 82
93246 83
93246 84
93246 85
93246 86
93246 87
93246 88
93246 89
93246 90
93246 91
93246 92
93246 93
93246 94
93246 95
93246 96
93246 97
93246 98
93246 99
93246 100
93249 1
93249 2
93249 3
93249 4
93249 5
93249 6
93249 7
93249 8
93249 9
93249 10
93249 11
93249 12
93249 13
93249 14
93249 15
93249 16
93249 17
93249 18
93250 1
93250 2
93250 3
93250 4
93250 5
93250 6
93250 7
93250 8
93250 9
93250 10
93250 12
93250 13
93250 14
93250 15
93250 16
93250 17
93250 18
93250 19
93250 20
93250 21
93250 22
93250 23
93250 24
93250 25
93250 26
93250 27
93250 28
93250 29
93250 30
93250 31
93250 32
93250 33
93250 34
93250 35
93250 36
93250 37
93250 39
93250 40
93250 41
93250 42
93250 43
93250 44
93250 45
93250 46
93250 47
93250 48
93250 49
93250 50
93250 51
93250 52
93250 53
93250 54
93250 55
93250 56
93250 64
93250 65
93250 66
93250 67
93250 68
93250 69
93250 70
93250 71
93250 72
93250 73
93250 74
93250 75
93250 76
93250 77
93250 79
93250 80
93250 81
93250 82
93250 83
93250 84
93250 85
93250 87
93250 88
93250 89
93250 90
93250 91
93250 92
93250 93
93250 94
93250 96
93250 97
93250 98
93250 99
93250 100
93255 1
93255 2
93255 3
93255 4
93255 5
93255 6
93255 7
93255 8
93255 9
93255 10
93255 11
93255 12
93255 13
93255 14
93255 15
93255 16
93255 17
93255 18
93255 19
93255 20
93255 21
93255 22
93255 23
93255 26
93255 27
93255 28
93255 29
93255 30
93255 39
93255 40
93255 41
93255 42
93255 43
93255 44
93255 45
93255 46
93255 47
93255 48
93255 49
93255 50
93255 51
93255 52
93255 53
93255 54
93255 55
93255 56
93255 57
93255 58
93255 59
93255 60
93255 61
93255 62
93255 63
93255 64
93255 65
93255 66
93255 67
93255 68
93255 69
93255 70
93255 71
93255 72
93255 73
93255 74
93255 75
93255 76
93255 77
93255 78
93255 79
93255 80
93255 81
93255 82
93255 83
93255 84
93255 85
93255 86
93255 87
93255 88
93255 89
93255 90
93255 91
93255 92
93255 93
93255 94
93255 95
93255 96
93255 97
93255 98
93255 99
93255 100
93256 1
93256 2
93256 3
93256 11
93256 20
93258 63
93258 84
93258 85
93258 86
93258 87
93258 88
93258 89
93258 90
93258 91
93258 92
93258 93
93258 94
93258 95
93258 96
93258 97
93258 98
93258 99
93258 100
93259 7
93259 12
93259 66
93259 67
93259 68
93259 69
93259 70
93259 71
93259 72
93259 73
93261 1
93261 2
93261 3
93261 26
93261 57
93261 60
93261 62
93261 63
93261 64
93261 65
93261 66
93261 67
93263 1
93263 2
93263 3
93263 19
93263 25
93263 30
93263 73
93263 79
93263 86
93263 88
93279 1
93279 2
93279 3
93279 4
93279 5
93279 6
93279 7
93279 8
93279 9
93279 10
93279 11
93279 12
93279 14
93279 15
93279 16
93279 17
93279 18
93279 19
93279 20
93279 21
93279 22
93279 23
93279 24
93279 25
93279 26
93279 27
93279 28
93279 29
93279 30
93279 31
93279 32
93279 33
93279 34
93279 35
93279 36
93279 37
93279 38
93279 39
93279 40
93279 41
93279 42
93279 43
93279 44
93279 45
93279 46
93279 47
93279 48
93279 49
93279 50
93279 51
93279 52
93279 53
93279 54
93279 55
93279 56
93279 57
93279 58
93279 59
93279 60
93279 61
93279 69
93279 70
93279 73
93279 81
93279 82
93281 73
93283 1
93283 2
93283 3
93283 4
93283 5
93283 6
93283 7
93283 8
93283 9
93283 10
93283 11
93283 12
93283 13
93283 14
93283 15
93283 16
93283 17
93283 18
93283 19
93283 20
93283 21
93283 22
93283 23
93283 24
93283 25
93283 26
93283 27
93283 28
93283 29
93283 30
93283 31
93283 32
93283 33
93283 34
93283 35
93283 36
93283 37
93283 38
93283 39
93283 40
93283 41
93283 42
93283 43
93283 44
93283 45
93283 46
93283 47
93283 48
93283 49
93283 50
93283 51
93283 52
93283 53
93283 54
93283 55
93283 56
93283 57
93283 58
93283 59
93283 60
93283 61
93283 62
93283 63
93283 64
93283 65
93283 68
93283 69
93283 70
93283 71
93283 72
93283 73
93283 74
93283 75
93283 76
93283 77
93283 78
93283 79
93283 80
93283 81
93283 82
93283 83
93283 84
93283 85
93283 86
93283 87
93283 88
93283 89
93283 90
93283 91
93283 92
93283 93
93283 94
93283 95
93283 96
93283 97
93283 98
93283 99
93283 100
93284 1
93284 2
93284 3
93284 4
93284 5
93284 6
93284 7
93284 8
93284 9
93284 10
93284 11
93284 12
93284 13
93284 14
93284 15
93284 16
93284 17
93284 18
93284 19
93284 20
93284 21
93284 22
93284 23
93284 24
93284 25
93284 26
93284 27
93284 28
93284 29
93284 30
93284 31
93284 32
93284 33
93284 34
93284 35
93284 36
93284 37
93284 38
93284 39
93284 40
93284 41
93284 42
93284 43
93284 44
93284 45
93284 46
93284 47
93284 48
93284 49
93284 50
93284 51
93284 52
93284 53
93284 54
93284 55
93284 56
93284 57
93284 58
93284 59
93284 60
93284 61
93284 62
93284 63
93284 64
93284 65
93284 66
93284 67
93284 68
93284 69
93284 70
93284 71
93284 72
93284 73
93284 74
93284 75
93284 76
93284 77
93284 78
93284 79
93284 80
93284 81
93284 82
93284 83
93284 84
93284 85
93284 86
93284 87
93284 88
93284 89
93284 90
93284 91
93284 92
93284 93
93284 94
93284 95
93284 96
93284 97
93284 98
93284 99
93284 100
93294 17
93294 59
93296 32
93296 86
93297 3
93297 44
93297 45
93297 46
93297 47
93297 48
93297 49
93297 50
93297 51
93297 52
93297 53
93297 54
93297 55
93297 56
93297 57
93297 58
93297 59
93297 60
93297 61
93297 62
93297 63
93297 64
93297 65
93297 66
93297 67
93297 68
93297 69
93297 70
93297 71
93297 72
93297 73
93297 74
93297 75
93297 76
93297 77
93297 78
93297 79
93297 80
93297 81
93297 82
93297 83
93297 84
93297 85
93297 86
93297 87
93297 88
93297 89
93297 90
93297 91
93297 92
93297 93
93297 94
93297 95
93297 96
93297 97
93297 98
93297 99
93297 100
93298 1
93298 2
93298 3
93298 4
93298 5
93298 6
93298 7
93298 8
93298 9
93298 10
93298 11
93298 12
93298 13
93298 14
93298 15
93298 16
93298 17
93298 18
93298 19
93298 20
93298 21
93298 22
93298 23
93298 24
93298 25
93298 26
93298 27
93298 28
93298 29
93298 30
93298 31
93298 32
93298 33
93298 34
93298 35
93298 36
93298 37
93298 38
93298 39
93298 40
93298 41
93298 42
93298 44
93298 45
93298 46
93298 47
93298 48
93298 49
93298 50
93298 51
93298 52
93298 53
93298 54
93298 55
93298 56
93298 57
93298 58
93298 59
93298 60
93298 61
93298 62
93298 63
93298 64
93298 65
93298 66
93298 67
93298 68
93298 69
93298 70
93298 71
93298 72
93298 73
93298 74
93298 75
93298 76
93298 77
93298 78
93299 1
93299 2
93299 3
93299 4
93299 5
93299 6
93299 7
93299 8
93299 9
93299 10
93299 11
93299 12
93299 13
93299 14
93299 15
93299 16
93299 17
93299 18
93299 19
93299 20
93299 21
93299 22
93299 23
93299 24
93299 25
93299 26
93299 27
93299 28
93299 29
93299 30
93299 31
93299 32
93299 33
93299 34
93299 35
93299 36
93299 37
93299 38
93299 39
93299 40
93299 41
93299 42
93299 43
93299 44
93299 45
93299 46
93299 47
93299 48
93299 49
93299 50
93299 51
93299 52
93299 53
93299 54
93299 55
93299 56
93299 57
93299 58
93299 59
93299 60
93299 61
93299 62
93299 63
93299 64
93299 65
93299 66
93299 67
93299 68
93299 69
93299 70
93299 71
93299 72
93299 73
93299 74
93299 75
93299 76
93299 77
93299 78
93299 79
93299 80
93299 81
93299 82
93299 83
93299 84
93299 85
93299 86
93299 87
93299 88
93299 89
93299 90
93299 91
93299 92
93299 93
93299 94
93299 95
93299 96
93299 97
93299 98
93299 99
93299 100
93300 1
93300 2
93300 3
93300 4
93300 5
93300 6
93300 7
93300 8
93300 9
93300 10
93300 11
93300 12
93300 13
93300 14
93300 59
93301 55
93301 56
93301 57
93301 58
93301 59
93301 60
93301 61
93301 62
93301 63
93301 64
93301 65
93301 66
93301 67
93301 68
93301 69
93301 70
93301 71
93301 72
93301 73
93301 74
93301 75
93301 76
93301 77
93301 78
93301 79
93301 80
93301 81
93301 82
93301 83
93301 84
93301 85
93301 86
93301 87
93301 88
93301 89
93301 90
93301 91
93301 92
93301 93
93301 94
93301 95
93301 96
93301 97
93301 98
93301 99
93301 100
93302 1
93302 2
93302 3
93302 4
93302 5
93302 7
93302 8
93302 9
93302 10
93302 11
93302 12
93302 13
93302 14
93302 15
93302 16
93302 17
93302 18
93302 19
93302 20
93302 21
93302 22
93302 23
93302 24
93302 25
93302 26
93302 27
93302 28
93302 29
93302 30
93302 31
93302 32
93302 33
93302 34
93302 35
93302 36
93302 37
93302 38
93302 39
93302 40
93302 41
93302 42
93302 43
93302 44
93302 45
93302 46
93302 47
93302 48
93302 49
93302 50
93302 51
93302 52
93302 53
93302 54
93302 55
93302 56
93302 57
93302 58
93302 59
93302 60
93302 61
93302 62
93302 63
93302 64
93302 65
93302 66
93302 67
93302 68
93302 69
93302 70
93302 71
93302 72
93302 73
93302 74
93302 75
93302 76
93302 77
93302 78
93302 79
93302 80
93302 88
93302 89
93302 90
93302 91
93302 92
93302 93
93302 94
93302 95
93302 96
93302 97
93302 98
93302 99
93302 100
93303 3
93303 4
93303 5
93303 6
93303 7
93303 8
93303 9
93303 10
93303 11
93303 12
93303 13
93303 14
93303 15
93303 16
93303 17
93303 18
93303 19
93303 20
93303 21
93303 22
93303 23
93303 24
93303 25
93303 26
93303 27
93303 28
93303 29
93303 30
93303 31
93303 32
93303 33
93303 34
93303 35
93303 36
93303 37
93303 38
93303 39
93303 40
93303 41
93303 42
93303 43
93303 44
93303 45
93303 46
93303 47
93303 48
93303 49
93303 50
93303 51
93303 52
93303 53
93303 54
93303 55
93303 56
93303 57
93303 58
93303 59
93303 60
93303 61
93303 62
93303 63
93303 64
93303 65
93303 66
93303 67
93303 68
93303 69
93303 70
93303 71
93303 72
93303 73
93303 74
93303 76
93303 77
93303 78
93303 79
93303 80
93303 81
93303 82
93303 83
93303 84
93303 85
93303 86
93303 87
93303 88
93303 89
93303 90
93303 91
93303 92
93303 93
93303 94
93303 95
93303 96
93303 97
93303 98
93303 99
93303 100
93304 1
93304 2
93304 3
93304 4
93304 5
93304 6
93304 7
93304 8
93304 9
93304 10
93304 11
93304 12
93304 13
93304 14
93304 15
93304 16
93304 17
93304 18
93304 19
93304 20
93304 21
93304 22
93304 23
93304 24
93304 25
93304 26
93304 27
93304 28
93304 29
93304 30
93304 31
93304 32
93304 33
93304 34
93304 35
93304 36
93304 37
93304 38
93304 39
93304 40
93304 41
93304 42
93304 43
93304 44
93304 45
93304 46
93304 47
93304 49
93304 50
93304 51
93304 52
93304 53
93304 54
93304 55
93304 56
93304 57
93304 58
93304 59
93304 60
93304 61
93304 62
93304 63
93304 64
93304 65
93304 66
93304 67
93304 68
93304 69
93304 70
93304 71
93304 72
93304 73
93304 74
93304 75
93304 76
93304 77
93305 1
93305 2
93305 3
93305 4
93305 5
93305 6
93305 7
93305 8
93305 9
93305 10
93305 11
93305 12
93305 13
93305 14
93305 15
93305 16
93305 17
93305 18
93305 19
93305 20
93305 21
93305 22
93305 23
93305 24
93305 25
93305 26
93305 27
93305 28
93305 29
93305 30
93305 31
93305 32
93305 33
93305 34
93305 35
93305 36
93305 37
93305 38
93305 39
93305 40
93305 41
93305 42
93305 43
93305 44
93305 46
93305 47
93305 48
93305 49
93305 50
93305 51
93305 52
93305 58
93305 59
93305 60
93305 61
93305 62
93305 63
93305 64
93305 65
93305 66
93305 67
93305 73
93305 74
93305 75
93305 76
93305 77
93305 78
93305 79
93305 80
93305 81
93305 82
93305 83
93305 84
93305 85
93305 86
93305 87
93305 88
93305 89
93305 90
93305 91
93305 92
93305 93
93305 94
93305 95
93305 96
93305 97
93305 98
93305 99
93305 100
93306 1
93306 2
93306 3
93306 4
93306 5
93306 6
93306 7
93306 8
93306 9
93306 10
93306 11
93306 12
93306 13
93306 14
93306 15
93306 16
93306 20
93306 21
93306 23
93306 25
93306 26
93306 27
93306 28
93306 30
93306 31
93306 32
93306 33
93306 35
93306 36
93306 37
93306 38
93306 39
93306 40
93306 41
93306 42
93306 43
93306 44
93306 45
93306 46
93306 47
93306 48
93306 49
93306 50
93306 51
93306 52
93306 53
93306 54
93306 55
93306 56
93306 57
93306 58
93306 59
93306 60
93306 69
93306 70
93306 71
93306 72
93306 73
93306 74
93306 75
93306 76
93306 77
93306 78
93306 79
93307 44
93312 4
93312 24
93312 25
93312 26
93312 27
93312 66
93313 3
93315 33
93315 61
93317 28
93317 36
93317 37
93320 26
93322 14
93322 51
93324 9
93324 49
open
93188 13
93191 46
93192 79
93192 80
93192 81
93192 82
93193 24
93193 25
93195 4
93195 5
93195 6
93195 7
93195 8
93195 9
93195 10
93195 11
93195 12
93195 15
93196 84
93197 67
93197 97
93198 50
93199 11
93199 26
93199 37
93205 35
93205 71
93206 47
93206 63
93207 29
93207 88
93207 99
93221 65
93222 50
93223 33
93223 34
93224 32
93229 66
93231 1
93231 2
93231 3
93231 4
93231 5
93231 6
93231 7
93231 8
93231 9
93231 10
93231 11
93231 12
93231 13
93231 14
93231 15
93231 16
93231 17
93231 18
93231 19
93231 20
93231 21
93231 22
93231 23
93231 24
93231 25
93231 26
93231 27
93231 28
93231 29
93231 30
93231 32
93231 33
93231 34
93231 35
93231 36
93231 37
93231 38
93231 39
93231 40
93231 41
93231 42
93231 43
93231 44
93231 45
93231 46
93238 1
93241 51
93241 52
93241 53
93241 54
93241 55
93241 56
93241 57
93241 58
93241 59
93241 60
93241 61
93241 62
93241 63
93241 64
93241 65
93241 66
93241 67
93241 68
93241 69
93241 70
93241 71
93241 72
93241 73
93241 74
93241 75
93241 76
93241 77
93241 78
93241 79
93241 80
93241 81
93241 82
93241 83
93241 84
93241 85
93241 86
93241 87
93241 88
93241 89
93241 90
93246 1
93246 2
93246 3
93246 6
93246 7
93246 8
93246 9
93246 10
93246 11
93246 12
93246 13
93246 14
93246 15
93246 16
93246 17
93246 18
93246 19
93246 20
93246 21
93246 22
93246 23
93246 24
93246 25
93246 26
93246 27
93246 28
93246 29
93246 30
93246 31
93246 32
93246 33
93246 34
93246 35
93246 36
93246 37
93246 38
93246 39
93246 40
93246 41
93246 42
93246 43
93246 44
93246 45
93246 46
93246 47
93246 48
93246 49
93246 50
93246 51
93246 52
93246 53
93246 54
93246 56
93246 57
93246 58
93246 59
93246 60
93246 61
93246 62
93246 63
93246 64
93246 65
93246 66
93246 67
93246 68
93246 69
93246 70
93246 71
93246 72
93246 73
93246 74
93246 75
93246 76
93246 77
93246 78
93246 79
93246 80
93246 81
93246 82
93246 83
93246 84
93246 85
93246 86
93246 87
93246 88
93246 89
93246 90
93246 91
93246 92
93246 93
93246 94
93246 95
93246 96
93246 97
93246 98
93246 99
93246 100
93249 1
93249 2
93249 3
93249 4
93249 5
93249 6
93249 7
93249 8
93249 9
93249 10
93249 11
93249 12
93249 13
93249 14
93249 15
93249 16
93249 17
93249 18
93250 1
93250 2
93250 3
93250 4
93250 5
93250 6
93250 7
93250 8
93250 9
93250 10
93250 12
93250 13
93250 14
93250 15
93250 16
93250 17
93250 18
93250 19
93250 20
93250 21
93250 22
93250 23
93250 24
93250 25
93250 26
93250 27
93250 28
93250 29
93250 30
93250 31
93250 32
93250 33
93250 34
93250 35
93250 36
93250 37
93250 39
93250 40
93250 41
93250 42
93250 43
93250 44
93250 45
93250 46
93250 47
93250 48
93250 49
93250 50
93250 51
93250 52
93250 53
93250 54
93250 55
93250 56
93250 64
93250 65
93250 66
93250 67
93250 68
93250 69
93250 70
93250 71
93250 72
93250 73
93250 74
93250 75
93250 76
93250 77
93250 79
93250 80
93250 81
93250 82
93250 83
93250 84
93250 85
93250 87
93250 88
93250 89
93250 90
93250 91
93250 92
93250 93
93250 94
93250 96
93250 97
93250 98
93250 99
93250 100
93255 1
93255 2
93255 3
93255 4
93255 5
93255 6
93255 7
93255 8
93255 9
93255 10
93255 11
93255 12
93255 13
93255 14
93255 15
93255 16
93255 17
93255 18
93255 19
93255 20
93255 21
93255 22
93255 23
93255 26
93255 27
93255 28
93255 29
93255 30
93255 39
93255 40
93255 41
93255 42
93255 43
93255 44
93255 45
93255 46
93255 47
93255 48
93255 49
93255 50
93255 51
93255 52
93255 53
93255 54
93255 55
93255 56
93255 57
93255 58
93255 59
93255 60
93255 61
93255 62
93255 63
93255 64
93255 65
93255 66
93255 67
93255 68
93255 69
93255 70
93255 71
93255 72
93255 73
93255 74
93255 75
93255 76
93255 77
93255 78
93255 79
93255 80
93255 81
93255 82
93255 83
93255 84
93255 85
93255 86
93255 87
93255 88
93255 89
93255 90
93255 91
93255 92
93255 93
93255 94
93255 95
93255 96
93255 97
93255 98
93255 99
93255 100
93256 1
93256 2
93256 3
93256 4
93256 20
93258 84
93258 85
93258 86
93258 87
93258 88
93258 89
93258 90
93258 91
93258 92
93258 93
93258 94
93258 95
93258 96
93258 97
93258 98
93258 99
93258 100
93259 12
93259 66
93259 67
93259 68
93259 69
93259 70
93259 71
93259 72
93259 73
93261 1
93261 2
93261 3
93261 62
93261 63
93261 64
93261 65
93261 66
93261 67
93263 1
93263 2
93263 3
93263 73
93263 86
93279 1
93279 2
93279 3
93279 4
93279 5
93279 6
93279 7
93279 8
93279 9
93279 10
93279 11
93279 12
93279 14
93279 15
93279 16
93279 17
93279 18
93279 19
93279 20
93279 21
93279 22
93279 23
93279 24
93279 25
93279 26
93279 27
93279 28
93279 29
93279 30
93279 31
93279 32
93279 33
93279 34
93279 35
93279 36
93279 37
93279 38
93279 39
93279 40
93279 41
93279 42
93279 43
93279 44
93279 45
93279 46
93279 47
93279 48
93279 49
93279 50
93279 51
93279 52
93279 53
93279 54
93279 55
93279 56
93279 57
93279 58
93279 59
93279 60
93279 61
93279 62
93279 63
93279 64
93279 65
93279 66
93279 67
93279 68
93279 69
93279 70
93279 71
93279 72
93279 73
93279 74
93279 75
93279 76
93279 77
93279 78
93279 79
93279 80
93279 81
93279 82
93279 83
93279 84
93279 85
93279 86
93279 87
93279 88
93280 1
93280 2
93280 3
93280 4
93280 5
93280 6
93280 7
93280 8
93280 9
93280 10
93280 11
93280 12
93280 13
93280 14
93280 15
93280 16
93280 17
93280 18
93280 19
93280 20
93280 21
93280 22
93280 23
93280 24
93280 25
93280 26
93280 27
93280 28
93280 29
93280 30
93280 31
93280 32
93280 33
93280 34
93280 35
93280 36
93280 39
93280 40
93280 41
93280 42
93280 43
93280 44
93280 45
93280 46
93280 47
93280 48
93280 49
93280 50
93280 51
93280 52
93280 53
93280 54
93280 55
93280 56
93280 57
93280 58
93280 59
93280 60
93280 61
93280 62
93280 63
93280 64
93280 65
93280 66
93280 67
93280 68
93280 69
93280 70
93280 71
93280 72
93280 73
93280 74
93280 75
93280 76
93280 77
93280 78
93280 79
93280 80
93280 81
93280 82
93280 83
93280 84
93280 85
93280 86
93280 87
93280 88
93280 89
93280 90
93280 91
93280 92
93280 93
93280 94
93280 95
93280 96
93280 97
93280 98
93280 99
93280 100
93281 1
93281 2
93281 3
93281 4
93281 5
93281 6
93281 7
93281 8
93281 15
93281 16
93281 17
93281 18
93281 19
93281 20
93281 21
93281 22
93281 23
93281 24
93281 25
93281 26
93281 27
93281 28
93281 29
93281 30
93281 31
93281 32
93281 33
93281 34
93281 35
93281 36
93281 37
93281 38
93281 39
93281 40
93281 41
93281 42
93281 44
93281 45
93281 46
93281 47
93281 48
93281 49
93281 50
93281 51
93281 52
93281 53
93281 54
93281 55
93281 56
93281 57
93281 58
93281 59
93281 60
93281 61
93281 62
93281 63
93281 64
93281 65
93281 66
93281 67
93281 68
93281 69
93281 70
93281 71
93281 72
93281 73
93282 2
93282 3
93282 4
93282 5
93282 6
93282 7
93282 8
93282 9
93282 10
93283 1
93283 2
93283 3
93283 4
93283 5
93283 6
93283 7
93283 8
93283 9
93283 10
93283 11
93283 12
93283 13
93283 14
93283 15
93283 16
93283 17
93283 18
93283 19
93283 20
93283 21
93283 22
93283 23
93283 24
93283 25
93283 26
93283 27
93283 28
93283 29
93283 30
93283 31
93283 32
93283 33
93283 34
93283 35
93283 36
93283 37
93283 38
93283 39
93283 40
93283 41
93283 42
93283 43
93283 44
93283 45
93283 46
93283 47
93283 48
93283 49
93283 50
93283 51
93283 52
93283 53
93283 54
93283 55
93283 56
93283 57
93283 58
93283 59
93283 60
93283 61
93283 62
93283 63
93283 64
93283 65
93283 68
93283 69
93283 70
93283 71
93283 72
93283 73
93283 74
93283 75
93283 76
93283 77
93283 78
93283 79
93283 80
93283 81
93283 82
93283 83
93283 84
93283 85
93283 86
93283 87
93283 88
93283 89
93283 90
93283 91
93283 92
93283 93
93283 94
93283 95
93283 96
93283 97
93283 98
93283 99
93283 100
93284 1
93284 2
93284 3
93284 4
93284 5
93284 6
93284 7
93284 8
93284 9
93284 10
93284 11
93284 12
93284 13
93284 14
93284 15
93284 16
93284 17
93284 18
93284 19
93284 20
93284 21
93284 22
93284 23
93284 24
93284 25
93284 26
93284 27
93284 28
93284 29
93284 30
93284 31
93284 32
93284 33
93284 34
93284 35
93284 36
93284 37
93284 38
93284 39
93284 40
93284 41
93284 42
93284 43
93284 44
93284 45
93284 46
93284 47
93284 48
93284 49
93284 50
93284 51
93284 52
93284 53
93284 54
93284 55
93284 56
93284 57
93284 58
93284 59
93284 60
93284 61
93284 62
93284 63
93284 64
93284 65
93284 66
93284 67
93284 68
93284 69
93284 70
93284 71
93284 72
93284 73
93284 74
93284 75
93284 76
93284 77
93284 78
93284 79
93284 80
93284 81
93284 82
93284 83
93284 84
93284 85
93284 86
93284 87
93284 88
93284 89
93284 90
93284 91
93284 92
93284 93
93284 94
93284 95
93284 96
93284 97
93284 98
93284 99
93284 100
93294 59
93296 32
93297 3
93297 67
93298 74
93298 76
93298 77
93298 78
93299 1
93299 2
93299 3
93299 68
93302 51
93302 70
93304 49
93304 77
93305 80
93306 23
93306 78
93306 79
93307 44
93307 47
93312 4
93312 24
93312 25
93312 26
93312 27
93312 66
93313 3
93315 33
93315 61
93317 28
93317 34
93317 36
93317 37
93322 14
93322 51
93323 38
93324 9
93324 49
open
93188 13
93192 79
93192 80
93192 81
93192 82
93193 25
93195 4
93195 5
93195 6
93195 7
93195 8
93195 9
93195 10
93195 11
93195 12
93195 94
93196 70
93197 97
93199 11
93205 35
93205 71
93206 47
93223 33
93223 34
93224 32
93229 66
93231 1
93231 2
93231 3
93231 4
93231 5
93231 6
93231 7
93231 8
93231 9
93231 10
93231 11
93231 12
93231 13
93231 14
93231 15
93231 16
93231 17
93231 18
93231 19
93231 20
93231 21
93231 22
93231 23
93231 24
93231 25
93231 26
93231 27
93231 28
93231 29
93231 30
93231 32
93231 33
93231 34
93231 35
93231 36
93231 37
93231 38
93231 39
93231 40
93231 41
93231 42
93231 43
93231 44
93231 45
93231 46
93238 1
93241 52
93241 55
93241 56
93241 57
93241 58
93241 59
93241 60
93241 61
93241 62
93241 63
93241 64
93241 65
93241 66
93241 67
93241 68
93241 69
93241 70
93241 71
93241 72
93241 73
93241 74
93241 75
93241 76
93241 77
93241 78
93241 79
93241 80
93241 81
93241 82
93241 83
93241 84
93241 85
93241 86
93241 87
93241 88
93241 89
93241 90
93246 1
93246 2
93246 3
93246 6
93246 7
93246 8
93246 9
93246 10
93246 11
93246 12
93246 13
93246 14
93246 15
93246 16
93246 17
93246 18
93246 19
93246 20
93246 21
93246 22
93246 23
93246 24
93246 25
93246 26
93246 27
93246 28
93246 29
93246 30
93246 31
93246 32
93246 33
93246 34
93246 35
93246 36
93246 37
93246 38
93246 39
93246 40
93246 41
93246 42
93246 43
93246 44
93246 45
93246 46
93246 47
93246 48
93246 49
93246 50
93246 51
93246 52
93246 53
93246 54
93246 56
93246 57
93246 58
93246 59
93246 60
93246 61
93246 62
93246 63
93246 64
93246 65
93246 66
93246 67
93246 68
93246 69
93246 70
93246 71
93246 72
93246 73
93246 74
93246 75
93246 76
93246 77
93246 78
93246 79
93246 80
93246 81
93246 82
93246 83
93246 84
93246 85
93246 86
93246 87
93246 88
93246 89
93246 90
93246 91
93246 92
93246 93
93246 94
93246 95
93246 96
93246 97
93246 98
93246 99
93246 100
93249 1
93249 2
93249 3
93249 4
93249 5
93249 6
93249 7
93249 8
93249 9
93249 10
93249 11
93249 12
93249 13
93249 14
93249 15
93249 16
93249 17
93249 18
93250 1
93250 2
93250 3
93250 4
93250 5
93250 6
93250 7
93250 8
93250 9
93250 10
93250 12
93250 13
93250 14
93250 15
93250 16
93250 17
93250 18
93250 19
93250 20
93250 21
93250 22
93250 23
93250 24
93250 25
93250 26
93250 27
93250 28
93250 29
93250 30
93250 31
93250 32
93250 33
93250 34
93250 35
93250 36
93250 37
93250 39
93250 40
93250 41
93250 42
93250 43
93250 44
93250 45
93250 46
93250 47
93250 48
93250 49
93250 50
93250 51
93250 52
93250 53
93250 54
93250 55
93250 56
93250 64
93250 65
93250 66
93250 67
93250 68
93250 69
93250 70
93250 71
93250 72
93250 73
93250 74
93250 75
93250 76
93250 77
93250 79
93250 80
93250 81
93250 82
93250 83
93250 84
93250 85
93250 87
93250 88
93250 89
93250 90
93250 91
93250 92
93250 93
93250 94
93250 96
93250 97
93250 98
93250 99
93250 100
93255 1
93255 2
93255 3
93255 4
93255 5
93255 6
93255 7
93255 8
93255 9
93255 10
93255 11
93255 12
93255 13
93255 14
93255 15
93255 16
93255 17
93255 18
93255 19
93255 20
93255 21
93255 22
93255 23
93255 26
93255 27
93255 28
93255 29
93255 30
93255 39
93255 40
93255 41
93255 42
93255 43
93255 44
93255 45
93255 46
93255 47
93255 48
93255 49
93255 50
93255 51
93255 52
93255 53
93255 54
93255 55
93255 56
93255 57
93255 58
93255 59
93255 60
93255 61
93255 62
93255 63
93255 64
93255 65
93255 66
93255 67
93255 68
93255 69
93255 70
93255 71
93255 72
93255 73
93255 74
93255 75
93255 76
93255 77
93255 78
93255 79
93255 80
93255 81
93255 82
93255 83
93255 84
93255 85
93255 86
93255 87
93255 88
93255 89
93255 90
93255 91
93255 92
93255 93
93255 94
93255 95
93255 96
93255 97
93255 98
93255 99
93255 100
93256 20
93258 84
93258 85
93258 86
93258 87
93258 88
93258 89
93258 90
93258 91
93258 92
93258 93
93258 94
93258 95
93258 96
93258 97
93258 98
93258 99
93258 100
93259 12
93259 66
93259 67
93259 68
93259 69
93259 70
93259 71
93259 72
93259 73
93261 1
93261 2
93261 3
93261 37
93261 40
93261 62
93261 63
93261 64
93261 65
93261 66
93261 67
93263 1
93263 2
93263 3
93263 73
93263 80
93263 86
93279 1
93279 2
93279 3
93279 4
93279 5
93279 6
93279 7
93279 8
93279 9
93279 10
93279 11
93279 12
93279 14
93279 15
93279 16
93279 17
93279 18
93279 19
93279 20
93279 21
93279 22
93279 23
93279 24
93279 25
93279 26
93279 27
93279 28
93279 29
93279 30
93279 31
93279 32
93279 33
93279 34
93279 35
93279 36
93279 37
93279 38
93279 39
93279 40
93279 41
93279 42
93279 43
93279 44
93279 45
93279 46
93279 47
93279 48
93279 49
93279 50
93279 51
93279 52
93279 53
93279 54
93279 55
93279 56
93279 57
93279 58
93279 59
93279 60
93279 61
93279 62
93279 63
93279 64
93279 65
93279 66
93279 67
93279 68
93279 69
93279 70
93279 71
93279 72
93279 73
93279 74
93279 75
93279 76
93279 77
93279 78
93279 79
93279 80
93279 81
93279 82
93279 83
93279 84
93279 85
93279 86
93279 87
93279 88
93280 1
93280 2
93280 3
93280 4
93280 5
93280 6
93280 7
93280 8
93280 9
93280 10
93280 11
93280 12
93280 13
93280 14
93280 15
93280 16
93280 17
93280 18
93280 19
93280 20
93280 21
93280 22
93280 23
93280 24
93280 25
93280 26
93280 27
93280 28
93280 29
93280 30
93280 31
93280 32
93280 33
93280 34
93280 35
93280 36
93280 39
93280 40
93280 41
93280 42
93280 43
93280 44
93280 45
93280 46
93280 47
93280 48
93280 49
93280 50
93280 51
93280 52
93280 53
93280 54
93280 55
93280 56
93280 57
93280 58
93280 59
93280 60
93280 61
93280 62
93280 63
93280 64
93280 65
93280 66
93280 67
93280 68
93280 69
93280 70
93280 71
93280 72
93280 73
93280 74
93280 75
93280 76
93280 77
93280 78
93280 79
93280 80
93280 81
93280 82
93280 83
93280 84
93280 85
93280 86
93280 87
93280 88
93280 89
93280 90
93280 91
93280 92
93280 93
93280 94
93280 95
93280 96
93280 97
93280 98
93280 99
93280 100
93281 1
93281 2
93281 3
93281 4
93281 5
93281 6
93281 7
93281 8
93281 15
93281 16
93281 17
93281 18
93281 19
93281 20
93281 21
93281 22
93281 23
93281 24
93281 25
93281 26
93281 27
93281 28
93281 29
93281 30
93281 31
93281 32
93281 33
93281 34
93281 35
93281 36
93281 37
93281 38
93281 39
93281 40
93281 41
93281 42
93281 44
93281 45
93281 46
93281 47
93281 48
93281 49
93281 50
93281 51
93281 52
93281 53
93281 54
93281 55
93281 56
93281 57
93281 58
93281 59
93281 60
93281 61
93281 62
93281 63
93281 64
93281 65
93281 66
93281 67
93281 68
93281 69
93281 70
93281 71
93281 72
93281 73
93282 2
93282 3
93282 4
93282 5
93282 6
93282 7
93282 8
93282 9
93282 10
93283 1
93283 2
93283 3
93283 4
93283 5
93283 6
93283 7
93283 8
93283 9
93283 10
93283 11
93283 12
93283 13
93283 14
93283 15
93283 16
93283 17
93283 18
93283 19
93283 20
93283 21
93283 22
93283 23
93283 24
93283 25
93283 26
93283 27
93283 28
93283 29
93283 30
93283 31
93283 32
93283 33
93283 34
93283 35
93283 36
93283 37
93283 38
93283 39
93283 40
93283 41
93283 42
93283 43
93283 44
93283 45
93283 46
93283 47
93283 48
93283 49
93283 50
93283 51
93283 52
93283 53
93283 54
93283 55
93283 56
93283 57
93283 58
93283 59
93283 60
93283 61
93283 62
93283 63
93283 64
93283 65
93283 68
93283 69
93283 70
93283 71
93283 72
93283 73
93283 74
93283 75
93283 76
93283 77
93283 78
93283 79
93283 80
93283 81
93283 82
93283 83
93283 84
93283 85
93283 86
93283 87
93283 88
93283 89
93283 90
93283 91
93283 92
93283 93
93283 94
93283 95
93283 96
93283 97
93283 98
93283 99
93283 100
93284 1
93284 2
93284 3
93284 4
93284 5
93284 6
93284 7
93284 8
93284 9
93284 10
93284 11
93284 12
93284 13
93284 14
93284 15
93284 16
93284 17
93284 18
93284 19
93284 20
93284 21
93284 22
93284 23
93284 24
93284 25
93284 26
93284 27
93284 28
93284 29
93284 30
93284 31
93284 32
93284 33
93284 34
93284 35
93284 36
93284 37
93284 38
93284 39
93284 40
93284 41
93284 42
93284 43
93284 44
93284 45
93284 46
93284 47
93284 48
93284 49
93284 50
93284 51
93284 52
93284 53
93284 54
93284 55
93284 56
93284 57
93284 58
93284 59
93284 60
93284 61
93284 62
93284 63
93284 64
93284 65
93284 66
93284 67
93284 68
93284 69
93284 70
93284 71
93284 72
93284 73
93284 74
93284 75
93284 76
93284 77
93284 78
93284 79
93284 80
93284 81
93284 82
93284 83
93284 84
93284 85
93284 86
93284 87
93284 88
93284 89
93284 90
93284 91
93284 92
93284 93
93284 94
93284 95
93284 96
93284 97
93284 98
93284 99
93284 100
93294 7
93294 59
93296 32
93297 3
93298 74
93298 76
93298 77
93298 78
93299 1
93299 3
93302 51
93302 66
93302 70
93304 49
93304 77
93306 23
93306 78
93306 79
93307 44
93312 24
93312 25
93312 27
93312 66
93313 3
93315 33
93315 61
93317 31
93317 37
93318 12
93322 51
93324 9
93325 7
open
93188 13
93188 30
93192 79
93192 80
93192 81
93192 82
93193 24
93193 25
93195 4
93195 5
93195 6
93195 7
93195 8
93195 9
93195 10
93195 11
93195 12
93195 15
93197 97
93199 76
93205 35
93205 71
93206 47
93206 63
93220 80
93222 50
93223 33
93223 34
93224 32
93229 66
93229 68
93231 1
93231 2
93231 3
93231 4
93231 5
93231 6
93231 7
93231 8
93231 9
93231 10
93231 11
93231 12
93231 13
93231 14
93231 15
93231 16
93231 17
93231 18
93231 19
93231 20
93231 21
93231 22
93231 23
93231 24
93231 25
93231 26
93231 27
93231 28
93231 29
93231 30
93231 32
93231 33
93231 34
93231 35
93231 36
93231 37
93231 38
93231 39
93231 40
93231 41
93231 42
93231 43
93231 44
93231 45
93231 46
93238 1
93241 24
93241 51
93241 52
93241 53
93241 54
93241 55
93241 56
93241 57
93241 58
93241 59
93241 60
93241 61
93241 62
93241 63
93241 64
93241 65
93241 66
93241 67
93241 68
93241 69
93241 70
93241 71
93241 72
93241 73
93241 74
93241 75
93241 76
93241 77
93241 78
93241 79
93241 80
93241 81
93241 82
93241 83
93241 84
93241 85
93241 86
93241 87
93241 88
93241 89
93241 90
93246 1
93246 2
93246 3
93246 6
93246 7
93246 8
93246 9
93246 10
93246 11
93246 12
93246 13
93246 14
93246 15
93246 16
93246 17
93246 18
93246 19
93246 20
93246 21
93246 22
93246 23
93246 24
93246 25
93246 26
93246 27
93246 28
93246 29
93246 30
93246 31
93246 32
93246 33
93246 34
93246 35
93246 36
93246 37
93246 38
93246 39
93246 40
93246 41
93246 42
93246 43
93246 44
93246 45
93246 46
93246 47
93246 48
93246 49
93246 50
93246 51
93246 52
93246 53
93246 54
93246 56
93246 57
93246 58
93246 59
93246 60
93246 61
93246 62
93246 63
93246 64
93246 65
93246 66
93246 67
93246 68
93246 69
93246 70
93246 71
93246 72
93246 73
93246 74
93246 75
93246 76
93246 77
93246 78
93246 79
93246 80
93246 81
93246 82
93246 83
93246 84
93246 85
93246 86
93246 87
93246 88
93246 89
93246 90
93246 91
93246 92
93246 93
93246 94
93246 95
93246 96
93246 97
93246 98
93246 99
93246 100
93249 1
93249 2
93249 3
93249 4
93249 5
93249 6
93249 7
93249 8
93249 9
93249 10
93249 11
93249 12
93249 13
93249 14
93249 15
93249 16
93249 17
93249 18
93250 1
93250 2
93250 3
93250 4
93250 5
93250 6
93250 7
93250 8
93250 9
93250 10
93250 12
93250 13
93250 14
93250 15
93250 16
93250 17
93250 18
93250 19
93250 20
93250 21
93250 22
93250 23
93250 24
93250 25
93250 26
93250 27
93250 28
93250 29
93250 30
93250 31
93250 32
93250 33
93250 34
93250 35
93250 36
93250 37
93250 39
93250 40
93250 41
93250 42
93250 43
93250 44
93250 45
93250 46
93250 47
93250 48
93250 49
93250 50
93250 51
93250 52
93250 53
93250 54
93250 55
93250 56
93250 64
93250 65
93250 66
93250 67
93250 68
93250 69
93250 70
93250 71
93250 72
93250 73
93250 74
93250 75
93250 76
93250 77
93250 79
93250 80
93250 81
93250 82
93250 83
93250 84
93250 85
93250 87
93250 88
93250 89
93250 90
93250 91
93250 92
93250 93
93250 94
93250 96
93250 97
93250 98
93250 99
93250 100
93255 1
93255 2
93255 3
93255 4
93255 5
93255 6
93255 7
93255 8
93255 9
93255 10
93255 11
93255 12
93255 13
93255 14
93255 15
93255 16
93255 17
93255 18
93255 19
93255 20
93255 21
93255 22
93255 23
93255 26
93255 27
93255 28
93255 29
93255 30
93255 39
93255 40
93255 41
93255 42
93255 43
93255 44
93255 45
93255 46
93255 47
93255 48
93255 49
93255 50
93255 51
93255 52
93255 53
93255 54
93255 55
93255 56
93255 57
93255 58
93255 59
93255 60
93255 61
93255 62
93255 63
93255 64
93255 65
93255 66
93255 67
93255 68
93255 69
93255 70
93255 71
93255 72
93255 73
93255 74
93255 75
93255 76
93255 77
93255 78
93255 79
93255 80
93255 81
93255 82
93255 83
93255 84
93255 85
93255 86
93255 87
93255 88
93255 89
93255 90
93255 91
93255 92
93255 93
93255 94
93255 95
93255 96
93255 97
93255 98
93255 99
93255 100
93256 1
93256 2
93256 3
93256 4
93256 20
93258 84
93258 85
93258 86
93258 87
93258 88
93258 89
93258 90
93258 91
93258 92
93258 93
93258 94
93258 95
93258 96
93258 97
93258 98
93258 99
93258 100
93259 12
93259 66
93259 67
93259 68
93259 69
93259 70
93259 71
93259 72
93259 73
93261 1
93261 2
93261 3
93261 62
93261 63
93261 64
93261 65
93261 66
93261 67
93263 1
93263 2
93263 3
93263 73
93263 86
93279 1
93279 2
93279 3
93279 4
93279 5
93279 6
93279 7
93279 8
93279 9
93279 10
93279 11
93279 12
93279 14
93279 15
93279 16
93279 17
93279 18
93279 19
93279 20
93279 21
93279 22
93279 23
93279 24
93279 25
93279 26
93279 27
93279 28
93279 29
93279 30
93279 31
93279 32
93279 33
93279 34
93279 35
93279 36
93279 37
93279 38
93279 39
93279 40
93279 41
93279 42
93279 43
93279 44
93279 45
93279 46
93279 47
93279 48
93279 49
93279 50
93279 51
93279 52
93279 53
93279 54
93279 55
93279 56
93279 57
93279 58
93279 59
93279 60
93279 61
93279 62
93279 63
93279 64
93279 65
93279 66
93279 67
93279 68
93279 69
93279 70
93279 71
93279 72
93279 73
93279 74
93279 75
93279 76
93279 77
93279 78
93279 79
93279 80
93279 81
93279 82
93279 83
93279 84
93279 85
93279 86
93279 87
93279 88
93280 1
93280 2
93280 3
93280 4
93280 5
93280 6
93280 7
93280 8
93280 9
93280 10
93280 11
93280 12
93280 13
93280 14
93280 15
93280 16
93280 17
93280 18
93280 19
93280 20
93280 21
93280 22
93280 23
93280 24
93280 25
93280 26
93280 27
93280 28
93280 29
93280 30
93280 31
93280 32
93280 33
93280 34
93280 35
93280 36
93280 39
93280 40
93280 41
93280 42
93280 43
93280 44
93280 45
93280 46
93280 47
93280 48
93280 49
93280 50
93280 51
93280 52
93280 53
93280 54
93280 55
93280 56
93280 57
93280 58
93280 59
93280 60
93280 61
93280 62
93280 63
93280 64
93280 65
93280 66
93280 67
93280 68
93280 69
93280 70
93280 71
93280 72
93280 73
93280 74
93280 75
93280 76
93280 77
93280 78
93280 79
93280 80
93280 81
93280 82
93280 83
93280 84
93280 85
93280 86
93280 87
93280 88
93280 89
93280 90
93280 91
93280 92
93280 93
93280 94
93280 95
93280 96
93280 97
93280 98
93280 99
93280 100
93281 1
93281 2
93281 3
93281 4
93281 5
93281 6
93281 7
93281 8
93281 15
93281 16
93281 17
93281 18
93281 19
93281 20
93281 21
93281 22
93281 23
93281 24
93281 25
93281 26
93281 27
93281 28
93281 29
93281 30
93281 31
93281 32
93281 33
93281 34
93281 35
93281 36
93281 37
93281 38
93281 39
93281 40
93281 41
93281 42
93281 44
93281 45
93281 46
93281 47
93281 48
93281 49
93281 50
93281 51
93281 52
93281 53
93281 54
93281 55
93281 56
93281 57
93281 58
93281 59
93281 60
93281 61
93281 62
93281 63
93281 64
93281 65
93281 66
93281 67
93281 68
93281 69
93281 70
93281 71
93281 72
93281 73
93282 2
93282 3
93282 4
93282 5
93282 6
93282 7
93282 8
93282 9
93282 10
93283 1
93283 2
93283 3
93283 4
93283 5
93283 6
93283 7
93283 8
93283 9
93283 10
93283 11
93283 12
93283 13
93283 14
93283 15
93283 16
93283 17
93283 18
93283 19
93283 20
93283 21
93283 22
93283 23
93283 24
93283 25
93283 26
93283 27
93283 28
93283 29
93283 30
93283 31
93283 32
93283 33
93283 34
93283 35
93283 36
93283 37
93283 38
93283 39
93283 40
93283 41
93283 42
93283 43
93283 44
93283 45
93283 46
93283 47
93283 48
93283 49
93283 50
93283 51
93283 52
93283 53
93283 54
93283 55
93283 56
93283 57
93283 58
93283 59
93283 60
93283 61
93283 62
93283 63
93283 64
93283 65
93283 68
93283 69
93283 70
93283 71
93283 72
93283 73
93283 74
93283 75
93283 76
93283 77
93283 78
93283 79
93283 80
93283 81
93283 82
93283 83
93283 84
93283 85
93283 86
93283 87
93283 88
93283 89
93283 90
93283 91
93283 92
93283 93
93283 94
93283 95
93283 96
93283 97
93283 98
93283 99
93283 100
93284 1
93284 2
93284 3
93284 4
93284 5
93284 6
93284 7
93284 8
93284 9
93284 10
93284 11
93284 12
93284 13
93284 14
93284 15
93284 16
93284 17
93284 18
93284 19
93284 20
93284 21
93284 22
93284 23
93284 24
93284 25
93284 26
93284 27
93284 28
93284 29
93284 30
93284 31
93284 32
93284 33
93284 34
93284 35
93284 36
93284 37
93284 38
93284 39
93284 40
93284 41
93284 42
93284 43
93284 44
93284 45
93284 46
93284 47
93284 48
93284 49
93284 50
93284 51
93284 52
93284 53
93284 54
93284 55
93284 56
93284 57
93284 58
93284 59
93284 60
93284 61
93284 62
93284 63
93284 64
93284 65
93284 66
93284 67
93284 68
93284 69
93284 70
93284 71
93284 72
93284 73
93284 74
93284 75
93284 76
93284 77
93284 78
93284 79
93284 80
93284 81
93284 82
93284 83
93284 84
93284 85
93284 86
93284 87
93284 88
93284 89
93284 90
93284 91
93284 92
93284 93
93284 94
93284 95
93284 96
93284 97
93284 98
93284 99
93284 100
93294 59
93296 32
93297 3
93297 38
93297 78
93298 74
93298 76
93298 77
93298 78
93299 1
93299 2
93299 3
93299 68
93302 51
93302 70
93304 49
93304 77
93306 23
93306 78
93306 79
93307 44
93312 4
93312 24
93312 26
93312 27
93312 66
93313 3
93315 33
93315 57
93315 61
93317 28
93317 30
93317 33
93317 34
93317 35
93317 37
93322 51
93323 38
93323 46
93324 9
open
93188 13
93192 79
93192 80
93192 81
93192 82
93193 24
93193 25
93195 4
93195 5
93195 6
93195 7
93195 8
93195 9
93195 10
93195 11
93195 12
93195 15
93195 94
93196 79
93197 97
93199 11
93205 35
93205 71
93206 47
93207 99
93208 52
93208 68
93223 33
93223 78
93224 32
93225 76
93229 5
93229 48
93229 66
93231 1
93231 2
93231 3
93231 4
93231 5
93231 6
93231 7
93231 8
93231 9
93231 10
93231 11
93231 12
93231 13
93231 14
93231 15
93231 16
93231 17
93231 18
93231 19
93231 20
93231 21
93231 22
93231 23
93231 24
93231 25
93231 26
93231 27
93231 28
93231 29
93231 30
93231 32
93231 33
93231 34
93231 35
93231 36
93231 37
93231 38
93231 39
93231 40
93231 41
93231 42
93231 43
93231 44
93231 45
93231 46
93238 1
93241 52
93241 53
93241 54
93241 56
93241 57
93241 58
93241 59
93241 60
93241 62
93241 64
93241 65
93241 66
93241 68
93241 69
93241 70
93241 71
93241 72
93241 73
93241 74
93241 75
93241 76
93241 77
93241 78
93241 79
93241 80
93241 81
93241 82
93241 83
93241 84
93241 85
93241 86
93241 87
93241 88
93241 89
93241 90
93246 1
93246 2
93246 3
93246 6
93246 7
93246 8
93246 9
93246 10
93246 11
93246 12
93246 13
93246 14
93246 15
93246 16
93246 17
93246 18
93246 19
93246 20
93246 21
93246 22
93246 23
93246 24
93246 25
93246 26
93246 27
93246 28
93246 29
93246 30
93246 31
93246 32
93246 33
93246 34
93246 35
93246 36
93246 37
93246 38
93246 39
93246 40
93246 41
93246 42
93246 43
93246 44
93246 45
93246 46
93246 47
93246 48
93246 49
93246 50
93246 51
93246 52
93246 53
93246 54
93246 56
93246 57
93246 58
93246 59
93246 60
93246 61
93246 62
93246 63
93246 64
93246 65
93246 66
93246 67
93246 68
93246 69
93246 70
93246 71
93246 72
93246 73
93246 74
93246 75
93246 76
93246 77
93246 78
93246 79
93246 80
93246 81
93246 82
93246 83
93246 84
93246 85
93246 86
93246 87
93246 88
93246 89
93246 90
93246 91
93246 92
93246 93
93246 94
93246 95
93246 96
93246 97
93246 98
93246 99
93246 100
93249 1
93249 2
93249 3
93249 4
93249 5
93249 6
93249 7
93249 8
93249 9
93249 10
93249 11
93249 12
93249 13
93249 14
93249 15
93249 16
93249 17
93249 18
93250 1
93250 2
93250 3
93250 4
93250 5
93250 6
93250 7
93250 8
93250 9
93250 10
93250 12
93250 13
93250 14
93250 15
93250 16
93250 17
93250 18
93250 19
93250 20
93250 21
93250 22
93250 23
93250 24
93250 25
93250 26
93250 27
93250 28
93250 29
93250 30
93250 31
93250 32
93250 33
93250 34
93250 35
93250 36
93250 37
93250 39
93250 40
93250 41
93250 42
93250 43
93250 44
93250 45
93250 46
93250 47
93250 48
93250 49
93250 50
93250 51
93250 52
93250 53
93250 54
93250 55
93250 56
93250 64
93250 65
93250 66
93250 67
93250 68
93250 69
93250 70
93250 71
93250 72
93250 73
93250 74
93250 75
93250 76
93250 77
93250 79
93250 80
93250 81
93250 82
93250 83
93250 84
93250 85
93250 87
93250 88
93250 89
93250 90
93250 91
93250 92
93250 93
93250 94
93250 96
93250 97
93250 98
93250 99
93250 100
93255 1
93255 2
93255 3
93255 4
93255 5
93255 6
93255 7
93255 8
93255 9
93255 10
93255 11
93255 12
93255 13
93255 14
93255 15
93255 16
93255 17
93255 18
93255 19
93255 20
93255 21
93255 22
93255 23
93255 26
93255 27
93255 28
93255 29
93255 30
93255 39
93255 40
93255 41
93255 42
93255 43
93255 44
93255 45
93255 46
93255 47
93255 48
93255 49
93255 50
93255 51
93255 52
93255 53
93255 54
93255 55
93255 56
93255 57
93255 58
93255 59
93255 60
93255 61
93255 62
93255 63
93255 64
93255 65
93255 66
93255 67
93255 68
93255 69
93255 70
93255 71
93255 72
93255 73
93255 74
93255 75
93255 76
93255 77
93255 78
93255 79
93255 80
93255 81
93255 82
93255 83
93255 84
93255 85
93255 86
93255 87
93255 88
93255 89
93255 90
93255 91
93255 92
93255 93
93255 94
93255 95
93255 96
93255 97
93255 98
93255 99
93255 100
93256 2
93256 3
93256 20
93258 84
93258 85
93258 86
93258 87
93258 88
93258 89
93258 90
93258 91
93258 92
93258 93
93258 94
93258 95
93258 96
93258 97
93258 98
93258 99
93258 100
93259 12
93259 66
93259 67
93259 68
93259 69
93259 70
93259 71
93259 72
93259 73
93261 1
93261 2
93261 3
93261 62
93261 63
93261 64
93261 65
93261 66
93261 67
93263 1
93263 2
93263 3
93263 40
93263 73
93263 86
93279 1
93279 2
93279 3
93279 4
93279 5
93279 6
93279 7
93279 8
93279 9
93279 10
93279 11
93279 12
93279 14
93279 15
93279 16
93279 17
93279 18
93279 19
93279 20
93279 21
93279 22
93279 23
93279 24
93279 25
93279 26
93279 27
93279 28
93279 29
93279 30
93279 31
93279 32
93279 33
93279 34
93279 35
93279 36
93279 37
93279 38
93279 39
93279 40
93279 41
93279 42
93279 43
93279 44
93279 45
93279 46
93279 47
93279 48
93279 49
93279 50
93279 51
93279 52
93279 53
93279 54
93279 55
93279 56
93279 57
93279 58
93279 59
93279 60
93279 61
93281 73
93283 1
93283 2
93283 3
93283 4
93283 5
93283 6
93283 7
93283 8
93283 9
93283 10
93283 11
93283 12
93283 13
93283 14
93283 15
93283 16
93283 17
93283 18
93283 19
93283 20
93283 21
93283 22
93283 23
93283 24
93283 25
93283 26
93283 27
93283 28
93283 29
93283 30
93283 31
93283 32
93283 33
93283 34
93283 35
93283 36
93283 37
93283 38
93283 39
93283 40
93283 41
93283 42
93283 43
93283 44
93283 45
93283 46
93283 47
93283 48
93283 49
93283 50
93283 51
93283 52
93283 53
93283 54
93283 55
93283 56
93283 57
93283 58
93283 59
93283 60
93283 61
93283 62
93283 63
93283 64
93283 65
93283 68
93283 69
93283 70
93283 71
93283 72
93283 73
93283 74
93283 75
93283 76
93283 77
93283 78
93283 79
93283 80
93283 81
93283 82
93283 83
93283 84
93283 85
93283 86
93283 87
93283 88
93283 89
93283 90
93283 91
93283 92
93283 93
93283 94
93283 95
93283 96
93283 97
93283 98
93283 99
93283 100
93284 1
93284 2
93284 3
93284 4
93284 5
93284 6
93284 7
93284 8
93284 9
93284 10
93284 11
93284 12
93284 13
93284 14
93284 15
93284 16
93284 17
93284 18
93284 19
93284 20
93284 21
93284 22
93284 23
93284 24
93284 25
93284 26
93284 27
93284 28
93284 29
93284 30
93284 31
93284 32
93284 33
93284 34
93284 35
93284 36
93284 37
93284 38
93284 39
93284 40
93284 41
93284 42
93284 43
93284 44
93284 45
93284 46
93284 47
93284 48
93284 49
93284 50
93284 51
93284 52
93284 53
93284 54
93284 55
93284 56
93284 57
93284 58
93284 59
93284 60
93284 61
93284 62
93284 63
93284 64
93284 65
93284 66
93284 67
93284 68
93284 69
93284 70
93284 71
93284 72
93284 73
93284 74
93284 75
93284 76
93284 77
93284 78
93284 79
93284 80
93284 81
93284 82
93284 83
93284 84
93284 85
93284 86
93284 87
93284 88
93284 89
93284 90
93284 91
93284 92
93284 93
93284 94
93284 95
93284 96
93284 97
93284 98
93284 99
93284 100
93294 59
93296 32
93297 3
93297 44
93297 45
93297 46
93297 47
93297 48
93297 49
93297 50
93297 51
93297 52
93297 53
93297 54
93297 55
93297 56
93297 57
93297 58
93297 59
93297 60
93297 61
93297 62
93297 63
93297 64
93297 65
93297 66
93297 67
93297 68
93297 69
93297 70
93297 71
93297 72
93297 73
93297 74
93297 75
93297 76
93297 77
93297 78
93297 79
93297 80
93297 81
93297 82
93297 83
93297 84
93297 85
93297 86
93297 87
93297 88
93297 89
93297 90
93297 91
93297 92
93297 93
93297 94
93297 95
93297 96
93297 97
93297 98
93297 99
93297 100
93298 1
93298 2
93298 3
93298 4
93298 5
93298 6
93298 7
93298 8
93298 9
93298 10
93298 11
93298 12
93298 13
93298 14
93298 15
93298 16
93298 17
93298 18
93298 19
93298 20
93298 21
93298 22
93298 23
93298 24
93298 25
93298 26
93298 27
93298 28
93298 29
93298 30
93298 31
93298 32
93298 33
93298 34
93298 35
93298 36
93298 37
93298 38
93298 39
93298 40
93298 41
93298 42
93298 44
93298 45
93298 46
93298 47
93298 48
93298 49
93298 50
93298 51
93298 52
93298 53
93298 54
93298 55
93298 56
93298 57
93298 58
93298 59
93298 60
93298 61
93298 62
93298 63
93298 64
93298 65
93298 66
93298 67
93298 68
93298 69
93298 70
93298 71
93298 72
93298 73
93298 74
93298 75
93298 76
93298 77
93298 78
93299 1
93299 2
93299 3
93299 4
93299 5
93299 6
93299 7
93299 8
93299 9
93299 10
93299 11
93299 12
93299 13
93299 14
93299 15
93299 16
93299 17
93299 18
93299 19
93299 20
93299 21
93299 22
93299 23
93299 24
93299 25
93299 26
93299 27
93299 28
93299 29
93299 30
93299 31
93299 32
93299 33
93299 34
93299 35
93299 36
93299 37
93299 38
93299 39
93299 40
93299 41
93299 42
93299 43
93299 44
93299 45
93299 46
93299 47
93299 48
93299 49
93299 50
93299 51
93299 52
93299 53
93299 54
93299 55
93299 56
93299 57
93299 58
93299 59
93299 60
93299 61
93299 62
93299 63
93299 64
93299 65
93299 66
93299 67
93299 68
93299 69
93299 70
93299 71
93299 72
93299 73
93299 74
93299 75
93299 76
93299 77
93299 78
93299 79
93299 80
93299 81
93299 82
93299 83
93299 84
93299 85
93299 86
93299 87
93299 88
93299 89
93299 90
93299 91
93299 92
93299 93
93299 94
93299 95
93299 96
93299 97
93299 98
93299 99
93299 100
93300 1
93300 2
93300 3
93300 4
93300 5
93300 6
93300 7
93300 8
93300 9
93300 10
93300 11
93300 12
93300 13
93300 14
93300 17
93300 40
93301 55
93301 56
93301 57
93301 58
93301 59
93301 60
93301 61
93301 62
93301 63
93301 64
93301 65
93301 66
93301 67
93301 68
93301 69
93301 70
93301 71
93301 72
93301 73
93301 74
93301 75
93301 76
93301 77
93301 78
93301 79
93301 80
93301 81
93301 82
93301 83
93301 84
93301 85
93301 86
93301 87
93301 88
93301 89
93301 90
93301 91
93301 92
93301 93
93301 94
93301 95
93301 96
93301 97
93301 98
93301 99
93301 100
93302 1
93302 2
93302 3
93302 4
93302 5
93302 7
93302 8
93302 9
93302 10
93302 11
93302 12
93302 13
93302 14
93302 15
93302 16
93302 17
93302 18
93302 19
93302 20
93302 21
93302 22
93302 23
93302 24
93302 25
93302 26
93302 27
93302 28
93302 29
93302 30
93302 31
93302 32
93302 33
93302 34
93302 35
93302 36
93302 37
93302 38
93302 39
93302 40
93302 41
93302 42
93302 43
93302 44
93302 45
93302 46
93302 47
93302 48
93302 49
93302 50
93302 51
93302 52
93302 53
93302 54
93302 55
93302 56
93302 57
93302 58
93302 59
93302 60
93302 61
93302 62
93302 63
93302 64
93302 65
93302 66
93302 67
93302 68
93302 69
93302 70
93302 71
93302 72
93302 73
93302 74
93302 75
93302 76
93302 77
93302 78
93302 79
93302 80
93302 88
93302 89
93302 90
93302 91
93302 92
93302 93
93302 94
93302 95
93302 96
93302 97
93302 98
93302 99
93302 100
93303 3
93303 4
93303 5
93303 6
93303 7
93303 8
93303 9
93303 10
93303 11
93303 12
93303 13
93303 14
93303 15
93303 16
93303 17
93303 18
93303 19
93303 20
93303 21
93303 22
93303 23
93303 24
93303 25
93303 26
93303 27
93303 28
93303 29
93303 30
93303 31
93303 32
93303 33
93303 34
93303 35
93303 36
93303 37
93303 38
93303 39
93303 40
93303 41
93303 42
93303 43
93303 44
93303 45
93303 46
93303 47
93303 48
93303 49
93303 50
93303 51
93303 52
93303 53
93303 54
93303 55
93303 56
93303 57
93303 58
93303 59
93303 60
93303 61
93303 62
93303 63
93303 64
93303 65
93303 66
93303 67
93303 68
93303 69
93303 70
93303 71
93303 72
93303 73
93303 74
93303 76
93303 77
93303 78
93303 79
93303 80
93303 81
93303 82
93303 83
93303 84
93303 85
93303 86
93303 87
93303 88
93303 89
93303 90
93303 91
93303 92
93303 93
93303 94
93303 95
93303 96
93303 97
93303 98
93303 99
93303 100
93304 1
93304 2
93304 3
93304 4
93304 5
93304 6
93304 7
93304 8
93304 9
93304 10
93304 11
93304 12
93304 13
93304 14
93304 15
93304 16
93304 17
93304 18
93304 19
93304 20
93304 21
93304 22
93304 23
93304 24
93304 25
93304 26
93304 27
93304 28
93304 29
93304 30
93304 31
93304 32
93304 33
93304 34
93304 35
93304 36
93304 37
93304 38
93304 39
93304 40
93304 41
93304 42
93304 43
93304 44
93304 45
93304 46
93304 47
93304 49
93304 50
93304 51
93304 52
93304 53
93304 54
93304 55
93304 56
93304 57
93304 58
93304 59
93304 60
93304 61
93304 62
93304 63
93304 64
93304 65
93304 66
93304 67
93304 68
93304 69
93304 70
93304 71
93304 72
93304 73
93304 74
93304 75
93304 76
93304 77
93305 1
93305 2
93305 3
93305 4
93305 5
93305 6
93305 7
93305 8
93305 9
93305 10
93305 11
93305 12
93305 13
93305 14
93305 15
93305 16
93305 17
93305 18
93305 19
93305 20
93305 21
93305 22
93305 23
93305 24
93305 25
93305 26
93305 27
93305 28
93305 29
93305 30
93305 31
93305 32
93305 33
93305 34
93305 35
93305 36
93305 37
93305 38
93305 39
93305 40
93305 41
93305 42
93305 43
93305 44
93305 46
93305 47
93305 48
93305 49
93305 50
93305 51
93305 52
93305 58
93305 59
93305 60
93305 61
93305 62
93305 63
93305 64
93305 65
93305 66
93305 67
93305 73
93305 74
93305 75
93305 76
93305 77
93305 78
93305 79
93305 80
93305 81
93305 82
93305 83
93305 84
93305 85
93305 86
93305 87
93305 88
93305 89
93305 90
93305 91
93305 92
93305 93
93305 94
93305 95
93305 96
93305 97
93305 98
93305 99
93305 100
93306 1
93306 2
93306 3
93306 4
93306 5
93306 6
93306 7
93306 8
93306 9
93306 10
93306 11
93306 12
93306 13
93306 14
93306 15
93306 16
93306 20
93306 21
93306 23
93306 25
93306 26
93306 27
93306 28
93306 30
93306 31
93306 32
93306 33
93306 35
93306 36
93306 37
93306 38
93306 39
93306 40
93306 41
93306 42
93306 43
93306 44
93306 45
93306 46
93306 47
93306 48
93306 49
93306 50
93306 51
93306 52
93306 53
93306 54
93306 55
93306 56
93306 57
93306 58
93306 59
93306 60
93306 69
93306 70
93306 71
93306 72
93306 73
93306 74
93306 75
93306 76
93306 77
93306 78
93306 79
93307 44
93312 4
93312 24
93312 26
93312 27
93312 66
93313 3
93313 34
93313 55
93315 33
93315 61
93317 28
93322 14
93322 51
93324 9
open
93188 13
93192 79
93192 80
93192 81
93192 82
93193 25
93195 4
93195 5
93195 6
93195 7
93195 8
93195 9
93195 10
93195 11
93195 12
93195 15
93197 97
93198 50
93199 11
93205 35
93205 71
93206 47
93206 63
93207 29
93207 88
93207 99
93223 33
93223 34
93224 32
93229 66
93231 1
93231 2
93231 3
93231 4
93231 5
93231 6
93231 7
93231 8
93231 9
93231 10
93231 11
93231 12
93231 13
93231 14
93231 15
93231 16
93231 17
93231 18
93231 19
93231 20
93231 21
93231 22
93231 23
93231 24
93231 25
93231 26
93231 27
93231 28
93231 29
93231 30
93231 32
93231 33
93231 34
93231 35
93231 36
93231 37
93231 38
93231 39
93231 40
93231 41
93231 42
93231 43
93231 44
93231 45
93231 46
93238 1
93241 51
93241 52
93241 53
93241 54
93241 56
93241 58
93241 59
93241 60
93241 62
93241 64
93241 65
93241 68
93241 69
93241 70
93241 71
93241 72
93241 73
93241 74
93241 75
93241 76
93241 77
93241 78
93241 79
93241 80
93241 81
93241 82
93241 83
93241 84
93241 85
93241 86
93241 87
93241 88
93241 89
93241 90
93246 1
93246 2
93246 3
93246 6
93246 7
93246 8
93246 9
93246 10
93246 11
93246 12
93246 13
93246 14
93246 15
93246 16
93246 17
93246 18
93246 19
93246 20
93246 21
93246 22
93246 23
93246 24
93246 25
93246 26
93246 27
93246 28
93246 29
93246 30
93246 31
93246 32
93246 33
93246 34
93246 35
93246 36
93246 37
93246 38
93246 39
93246 40
93246 41
93246 42
93246 43
93246 44
93246 45
93246 46
93246 47
93246 48
93246 49
93246 50
93246 51
93246 52
93246 53
93246 54
93246 56
93246 57
93246 58
93246 59
93246 60
93246 61
93246 62
93246 63
93246 64
93246 65
93246 66
93246 67
93246 68
93246 69
93246 70
93246 71
93246 72
93246 73
93246 74
93246 75
93246 76
93246 77
93246 78
93246 79
93246 80
93246 81
93246 82
93246 83
93246 84
93246 85
93246 86
93246 87
93246 88
93246 89
93246 90
93246 91
93246 92
93246 93
93246 94
93246 95
93246 96
93246 97
93246 98
93246 99
93246 100
93249 1
93249 2
93249 3
93249 4
93249 5
93249 6
93249 7
93249 8
93249 9
93249 10
93249 11
93249 12
93249 13
93249 14
93249 15
93249 16
93249 17
93249 18
93250 1
93250 2
93250 3
93250 4
93250 5
93250 6
93250 7
93250 8
93250 9
93250 10
93250 12
93250 13
93250 14
93250 15
93250 16
93250 17
93250 18
93250 19
93250 20
93250 21
93250 22
93250 23
93250 24
93250 25
93250 26
93250 27
93250 28
93250 29
93250 30
93250 31
93250 32
93250 33
93250 34
93250 35
93250 36
93250 37
93250 39
93250 40
93250 41
93250 42
93250 43
93250 44
93250 45
93250 46
93250 47
93250 48
93250 49
93250 50
93250 51
93250 52
93250 53
93250 54
93250 55
93250 56
93250 64
93250 65
93250 66
93250 67
93250 68
93250 69
93250 70
93250 71
93250 72
93250 73
93250 74
93250 75
93250 76
93250 77
93250 79
93250 80
93250 81
93250 82
93250 83
93250 84
93250 85
93250 87
93250 88
93250 89
93250 90
93250 91
93250 92
93250 93
93250 94
93250 96
93250 97
93250 98
93250 99
93250 100
93255 1
93255 2
93255 3
93255 4
93255 5
93255 6
93255 7
93255 8
93255 9
93255 10
93255 11
93255 12
93255 13
93255 14
93255 15
93255 16
93255 17
93255 18
93255 19
93255 20
93255 21
93255 22
93255 23
93255 26
93255 27
93255 28
93255 29
93255 30
93255 39
93255 40
93255 41
93255 42
93255 43
93255 44
93255 45
93255 46
93255 47
93255 48
93255 49
93255 50
93255 51
93255 52
93255 53
93255 54
93255 55
93255 56
93255 57
93255 58
93255 59
93255 60
93255 61
93255 62
93255 63
93255 64
93255 65
93255 66
93255 67
93255 68
93255 69
93255 70
93255 71
93255 72
93255 73
93255 74
93255 75
93255 76
93255 77
93255 78
93255 79
93255 80
93255 81
93255 82
93255 83
93255 84
93255 85
93255 86
93255 87
93255 88
93255 89
93255 90
93255 91
93255 92
93255 93
93255 94
93255 95
93255 96
93255 97
93255 98
93255 99
93255 100
93256 1
93256 2
93256 3
93256 4
93256 20
93258 84
93258 85
93258 86
93258 87
93258 88
93258 89
93258 90
93258 91
93258 92
93258 93
93258 94
93258 95
93258 96
93258 97
93258 98
93258 99
93258 100
93259 12
93259 66
93259 67
93259 68
93259 69
93259 70
93259 71
93259 72
93259 73
93261 1
93261 2
93261 3
93261 62
93261 63
93261 64
93261 65
93261 66
93261 67
93263 1
93263 2
93263 3
93263 73
93263 86
93279 1
93279 2
93279 3
93279 4
93279 5
93279 6
93279 7
93279 8
93279 9
93279 10
93279 11
93279 12
93279 14
93279 15
93279 16
93279 17
93279 18
93279 19
93279 20
93279 21
93279 22
93279 23
93279 24
93279 25
93279 26
93279 27
93279 28
93279 29
93279 30
93279 31
93279 32
93279 33
93279 34
93279 35
93279 36
93279 37
93279 38
93279 39
93279 40
93279 41
93279 42
93279 43
93279 44
93279 45
93279 46
93279 47
93279 48
93279 49
93279 50
93279 51
93279 52
93279 53
93279 54
93279 55
93279 56
93279 57
93279 58
93279 59
93279 60
93279 61
93283 1
93283 2
93283 3
93283 4
93283 5
93283 6
93283 7
93283 8
93283 9
93283 10
93283 11
93283 12
93283 13
93283 14
93283 15
93283 16
93283 17
93283 18
93283 19
93283 20
93283 21
93283 22
93283 23
93283 24
93283 25
93283 26
93283 27
93283 28
93283 29
93283 30
93283 31
93283 32
93283 33
93283 34
93283 35
93283 36
93283 37
93283 38
93283 39
93283 40
93283 41
93283 42
93283 43
93283 44
93283 45
93283 46
93283 47
93283 48
93283 49
93283 50
93283 51
93283 52
93283 53
93283 54
93283 55
93283 56
93283 57
93283 58
93283 59
93283 60
93283 61
93283 62
93283 63
93283 64
93283 65
93283 68
93283 69
93283 70
93283 71
93283 72
93283 73
93283 74
93283 75
93283 76
93283 77
93283 78
93283 79
93283 80
93283 81
93283 82
93283 83
93283 84
93283 85
93283 86
93283 87
93283 88
93283 89
93283 90
93283 91
93283 92
93283 93
93283 94
93283 95
93283 96
93283 97
93283 98
93283 99
93283 100
93284 1
93284 2
93284 3
93284 4
93284 5
93284 6
93284 7
93284 8
93284 9
93284 10
93284 11
93284 12
93284 13
93284 14
93284 15
93284 16
93284 17
93284 18
93284 19
93284 20
93284 21
93284 22
93284 23
93284 24
93284 25
93284 26
93284 27
93284 28
93284 29
93284 30
93284 31
93284 32
93284 33
93284 34
93284 35
93284 36
93284 37
93284 38
93284 39
93284 40
93284 41
93284 42
93284 43
93284 44
93284 45
93284 46
93284 47
93284 48
93284 49
93284 50
93284 51
93284 52
93284 53
93284 54
93284 55
93284 56
93284 57
93284 58
93284 59
93284 60
93284 61
93284 62
93284 63
93284 64
93284 65
93284 66
93284 67
93284 68
93284 69
93284 70
93284 71
93284 72
93284 73
93284 74
93284 75
93284 76
93284 77
93284 78
93284 79
93284 80
93284 81
93284 82
93284 83
93284 84
93284 85
93284 86
93284 87
93284 88
93284 89
93284 90
93284 91
93284 92
93284 93
93284 94
93284 95
93284 96
93284 97
93284 98
93284 99
93284 100
93294 59
93296 32
93297 3
93297 44
93297 45
93297 46
93297 47
93297 48
93297 49
93297 50
93297 51
93297 52
93297 53
93297 54
93297 55
93297 56
93297 57
93297 58
93297 59
93297 60
93297 61
93297 62
93297 63
93297 64
93297 65
93297 66
93297 67
93297 68
93297 69
93297 70
93297 71
93297 72
93297 73
93297 74
93297 75
93297 76
93297 77
93297 78
93297 79
93297 80
93297 81
93297 82
93297 83
93297 84
93297 85
93297 86
93297 87
93297 88
93297 89
93297 90
93297 91
93297 92
93297 93
93297 94
93297 95
93297 96
93297 97
93297 98
93297 99
93297 100
93298 1
93298 2
93298 3
93298 4
93298 5
93298 6
93298 7
93298 8
93298 9
93298 10
93298 11
93298 12
93298 13
93298 14
93298 15
93298 16
93298 17
93298 18
93298 19
93298 20
93298 21
93298 22
93298 23
93298 24
93298 25
93298 26
93298 27
93298 28
93298 29
93298 30
93298 31
93298 32
93298 33
93298 34
93298 35
93298 36
93298 37
93298 38
93298 39
93298 40
93298 41
93298 42
93298 44
93298 45
93298 46
93298 47
93298 48
93298 49
93298 50
93298 51
93298 52
93298 53
93298 54
93298 55
93298 56
93298 57
93298 58
93298 59
93298 60
93298 61
93298 62
93298 63
93298 64
93298 65
93298 66
93298 67
93298 68
93298 69
93298 70
93298 71
93298 72
93298 73
93298 74
93298 75
93298 76
93298 77
93298 78
93299 1
93299 2
93299 3
93299 4
93299 5
93299 6
93299 7
93299 8
93299 9
93299 10
93299 11
93299 12
93299 13
93299 14
93299 15
93299 16
93299 17
93299 18
93299 19
93299 20
93299 21
93299 22
93299 23
93299 24
93299 25
93299 26
93299 27
93299 28
93299 29
93299 30
93299 31
93299 32
93299 33
93299 34
93299 35
93299 36
93299 37
93299 38
93299 39
93299 40
93299 41
93299 42
93299 43
93299 44
93299 45
93299 46
93299 47
93299 48
93299 49
93299 50
93299 51
93299 52
93299 53
93299 54
93299 55
93299 56
93299 57
93299 58
93299 59
93299 60
93299 61
93299 62
93299 63
93299 64
93299 65
93299 66
93299 67
93299 68
93299 69
93299 70
93299 71
93299 72
93299 73
93299 74
93299 75
93299 76
93299 77
93299 78
93299 79
93299 80
93299 81
93299 82
93299 83
93299 84
93299 85
93299 86
93299 87
93299 88
93299 89
93299 90
93299 91
93299 92
93299 93
93299 94
93299 95
93299 96
93299 97
93299 98
93299 99
93299 100
93300 1
93300 2
93300 3
93300 4
93300 5
93300 6
93300 7
93300 8
93300 9
93300 10
93300 11
93300 12
93300 13
93300 14
93301 55
93301 56
93301 57
93301 58
93301 59
93301 60
93301 61
93301 62
93301 63
93301 64
93301 65
93301 66
93301 67
93301 68
93301 69
93301 70
93301 71
93301 72
93301 73
93301 74
93301 75
93301 76
93301 77
93301 78
93301 79
93301 80
93301 81
93301 82
93301 83
93301 84
93301 85
93301 86
93301 87
93301 88
93301 89
93301 90
93301 91
93301 92
93301 93
93301 94
93301 95
93301 96
93301 97
93301 98
93301 99
93301 100
93302 1
93302 2
93302 3
93302 4
93302 5
93302 7
93302 8
93302 9
93302 10
93302 11
93302 12
93302 13
93302 14
93302 15
93302 16
93302 17
93302 18
93302 19
93302 20
93302 21
93302 22
93302 23
93302 24
93302 25
93302 26
93302 27
93302 28
93302 29
93302 30
93302 31
93302 32
93302 33
93302 34
93302 35
93302 36
93302 37
93302 38
93302 39
93302 40
93302 41
93302 42
93302 43
93302 44
93302 45
93302 46
93302 47
93302 48
93302 49
93302 50
93302 51
93302 52
93302 53
93302 54
93302 55
93302 56
93302 57
93302 58
93302 59
93302 60
93302 61
93302 62
93302 63
93302 64
93302 65
93302 66
93302 67
93302 68
93302 69
93302 70
93302 71
93302 72
93302 73
93302 74
93302 75
93302 76
93302 77
93302 78
93302 79
93302 80
93302 88
93302 89
93302 90
93302 91
93302 92
93302 93
93302 94
93302 95
93302 96
93302 97
93302 98
93302 99
93302 100
93303 3
93303 4
93303 5
93303 6
93303 7
93303 8
93303 9
93303 10
93303 11
93303 12
93303 13
93303 14
93303 15
93303 16
93303 17
93303 18
93303 19
93303 20
93303 21
93303 22
93303 23
93303 24
93303 25
93303 26
93303 27
93303 28
93303 29
93303 30
93303 31
93303 32
93303 33
93303 34
93303 35
93303 36
93303 37
93303 38
93303 39
93303 40
93303 41
93303 42
93303 43
93303 44
93303 45
93303 46
93303 47
93303 48
93303 49
93303 50
93303 51
93303 52
93303 53
93303 54
93303 55
93303 56
93303 57
93303 58
93303 59
93303 60
93303 61
93303 62
93303 63
93303 64
93303 65
93303 66
93303 67
93303 68
93303 69
93303 70
93303 71
93303 72
93303 73
93303 74
93303 76
93303 77
93303 78
93303 79
93303 80
93303 81
93303 82
93303 83
93303 84
93303 85
93303 86
93303 87
93303 88
93303 89
93303 90
93303 91
93303 92
93303 93
93303 94
93303 95
93303 96
93303 97
93303 98
93303 99
93303 100
93304 1
93304 2
93304 3
93304 4
93304 5
93304 6
93304 7
93304 8
93304 9
93304 10
93304 11
93304 12
93304 13
93304 14
93304 15
93304 16
93304 17
93304 18
93304 19
93304 20
93304 21
93304 22
93304 23
93304 24
93304 25
93304 26
93304 27
93304 28
93304 29
93304 30
93304 31
93304 32
93304 33
93304 34
93304 35
93304 36
93304 37
93304 38
93304 39
93304 40
93304 41
93304 42
93304 43
93304 44
93304 45
93304 46
93304 47
93304 49
93304 50
93304 51
93304 52
93304 53
93304 54
93304 55
93304 56
93304 57
93304 58
93304 59
93304 60
93304 61
93304 62
93304 63
93304 64
93304 65
93304 66
93304 67
93304 68
93304 69
93304 70
93304 71
93304 72
93304 73
93304 74
93304 75
93304 76
93304 77
93305 1
93305 2
93305 3
93305 4
93305 5
93305 6
93305 7
93305 8
93305 9
93305 10
93305 11
93305 12
93305 13
93305 14
93305 15
93305 16
93305 17
93305 18
93305 19
93305 20
93305 21
93305 22
93305 23
93305 24
93305 25
93305 26
93305 27
93305 28
93305 29
93305 30
93305 31
93305 32
93305 33
93305 34
93305 35
93305 36
93305 37
93305 38
93305 39
93305 40
93305 41
93305 42
93305 43
93305 44
93305 46
93305 47
93305 48
93305 49
93305 50
93305 51
93305 52
93305 58
93305 59
93305 60
93305 61
93305 62
93305 63
93305 64
93305 65
93305 66
93305 67
93305 73
93305 74
93305 75
93305 76
93305 77
93305 78
93305 79
93305 80
93305 81
93305 82
93305 83
93305 84
93305 85
93305 86
93305 87
93305 88
93305 89
93305 90
93305 91
93305 92
93305 93
93305 94
93305 95
93305 96
93305 97
93305 98
93305 99
93305 100
93306 1
93306 2
93306 3
93306 4
93306 5
93306 6
93306 7
93306 8
93306 9
93306 10
93306 11
93306 12
93306 13
93306 14
93306 15
93306 16
93306 20
93306 21
93306 23
93306 25
93306 26
93306 27
93306 28
93306 30
93306 31
93306 32
93306 33
93306 35
93306 36
93306 37
93306 38
93306 39
93306 40
93306 41
93306 42
93306 43
93306 44
93306 45
93306 46
93306 47
93306 48
93306 49
93306 50
93306 51
93306 52
93306 53
93306 54
93306 55
93306 56
93306 57
93306 58
93306 59
93306 60
93306 69
93306 70
93306 71
93306 72
93306 73
93306 74
93306 75
93306 76
93306 77
93306 78
93306 79
93307 44
93312 4
93312 24
93312 25
93312 26
93312 27
93312 66
93313 3
93315 33
93315 61
93317 28
93317 34
93317 37
93322 51
93324 9
open
93188 13
93188 36
93192 79
93192 80
93192 81
93192 82
93193 24
93193 25
93194 45
93195 4
93195 5
93195 6
93195 7
93195 8
93195 9
93195 10
93195 11
93195 12
93195 13
93195 15
93197 97
93205 35
93205 71
93206 63
93222 50
93223 33
93224 32
93229 66
93230 14
93230 15
93231 1
93231 2
93231 3
93231 4
93231 5
93231 6
93231 7
93231 8
93231 9
93231 10
93231 11
93231 12
93231 13
93231 14
93231 15
93231 16
93231 17
93231 18
93231 19
93231 20
93231 21
93231 22
93231 23
93231 24
93231 25
93231 26
93231 27
93231 28
93231 29
93231 30
93231 32
93231 33
93231 34
93231 35
93231 36
93231 37
93231 38
93231 39
93231 40
93231 41
93231 42
93231 43
93231 44
93231 45
93231 46
93238 1
93241 53
93241 58
93241 60
93241 62
93241 66
93241 68
93241 69
93241 70
93241 71
93241 72
93241 73
93241 74
93241 75
93241 76
93241 77
93241 78
93241 79
93241 80
93241 81
93241 82
93241 83
93241 84
93241 85
93241 86
93241 87
93241 88
93241 89
93241 90
93246 1
93246 2
93246 3
93246 6
93246 7
93246 8
93246 9
93246 10
93246 11
93246 12
93246 13
93246 14
93246 15
93246 16
93246 17
93246 18
93246 19
93246 20
93246 21
93246 22
93246 23
93246 24
93246 25
93246 26
93246 27
93246 28
93246 29
93246 30
93246 31
93246 32
93246 33
93246 34
93246 35
93246 36
93246 37
93246 38
93246 39
93246 40
93246 41
93246 42
93246 43
93246 44
93246 45
93246 46
93246 47
93246 48
93246 49
93246 50
93246 51
93246 52
93246 53
93246 54
93246 56
93246 57
93246 58
93246 59
93246 60
93246 61
93246 62
93246 63
93246 64
93246 65
93246 66
93246 67
93246 68
93246 69
93246 70
93246 71
93246 72
93246 73
93246 74
93246 75
93246 76
93246 77
93246 78
93246 79
93246 80
93246 81
93246 82
93246 83
93246 84
93246 85
93246 86
93246 87
93246 88
93246 89
93246 90
93246 91
93246 92
93246 93
93246 94
93246 95
93246 96
93246 97
93246 98
93246 99
93246 100
93249 1
93249 2
93249 3
93249 4
93249 5
93249 6
93249 7
93249 8
93249 9
93249 10
93249 11
93249 12
93249 13
93249 14
93249 15
93249 16
93249 17
93249 18
93250 1
93250 2
93250 3
93250 4
93250 5
93250 6
93250 7
93250 8
93250 9
93250 10
93250 12
93250 13
93250 14
93250 15
93250 16
93250 17
93250 18
93250 19
93250 20
93250 21
93250 22
93250 23
93250 24
93250 25
93250 26
93250 27
93250 28
93250 29
93250 30
93250 31
93250 32
93250 33
93250 34
93250 35
93250 36
93250 37
93250 39
93250 40
93250 41
93250 42
93250 43
93250 44
93250 45
93250 46
93250 47
93250 48
93250 49
93250 50
93250 51
93250 52
93250 53
93250 54
93250 55
93250 56
93250 64
93250 65
93250 66
93250 67
93250 68
93250 69
93250 70
93250 71
93250 72
93250 73
93250 74
93250 75
93250 76
93250 77
93250 79
93250 80
93250 81
93250 82
93250 83
93250 84
93250 85
93250 87
93250 88
93250 89
93250 90
93250 91
93250 92
93250 93
93250 94
93250 96
93250 97
93250 98
93250 99
93250 100
93255 1
93255 2
93255 3
93255 4
93255 5
93255 6
93255 7
93255 8
93255 9
93255 10
93255 11
93255 12
93255 13
93255 14
93255 15
93255 16
93255 17
93255 18
93255 19
93255 20
93255 21
93255 22
93255 23
93255 26
93255 27
93255 28
93255 29
93255 30
93255 39
93255 40
93255 41
93255 42
93255 43
93255 44
93255 45
93255 46
93255 47
93255 48
93255 49
93255 50
93255 51
93255 52
93255 53
93255 54
93255 55
93255 56
93255 57
93255 58
93255 59
93255 60
93255 61
93255 62
93255 63
93255 64
93255 65
93255 66
93255 67
93255 68
93255 69
93255 70
93255 71
93255 72
93255 73
93255 74
93255 75
93255 76
93255 77
93255 78
93255 79
93255 80
93255 81
93255 82
93255 83
93255 84
93255 85
93255 86
93255 87
93255 88
93255 89
93255 90
93255 91
93255 92
93255 93
93255 94
93255 95
93255 96
93255 97
93255 98
93255 99
93255 100
93256 1
93256 20
93258 84
93258 90
93258 92
93258 100
93259 12
93263 73
93263 86
93279 1
93279 2
93279 3
93279 4
93279 5
93279 6
93279 7
93279 8
93279 9
93279 10
93279 11
93279 12
93279 14
93279 15
93279 16
93279 17
93279 18
93279 19
93279 20
93279 21
93279 22
93279 23
93279 24
93279 25
93279 26
93279 27
93279 28
93279 29
93279 30
93279 31
93279 32
93279 33
93279 34
93279 35
93279 36
93279 37
93279 38
93279 39
93279 40
93279 41
93279 42
93279 43
93279 44
93279 45
93279 46
93279 47
93279 48
93279 49
93279 50
93279 51
93279 52
93279 53
93279 54
93279 55
93279 56
93279 57
93279 58
93279 59
93279 60
93279 61
93283 1
93283 2
93283 3
93283 4
93283 5
93283 6
93283 7
93283 8
93283 9
93283 10
93283 11
93283 12
93283 13
93283 14
93283 15
93283 16
93283 17
93283 18
93283 19
93283 20
93283 21
93283 22
93283 23
93283 24
93283 25
93283 26
93283 27
93283 28
93283 29
93283 30
93283 31
93283 32
93283 33
93283 34
93283 35
93283 36
93283 37
93283 38
93283 39
93283 40
93283 41
93283 42
93283 43
93283 44
93283 45
93283 46
93283 47
93283 48
93283 49
93283 50
93283 51
93283 52
93283 53
93283 54
93283 55
93283 56
93283 57
93283 58
93283 59
93283 60
93283 61
93283 62
93283 63
93283 64
93283 65
93283 68
93283 69
93283 70
93283 71
93283 72
93283 73
93283 74
93283 75
93283 76
93283 77
93283 78
93283 79
93283 80
93283 81
93283 82
93283 83
93283 84
93283 85
93283 86
93283 87
93283 88
93283 89
93283 90
93283 91
93283 92
93283 93
93283 94
93283 95
93283 96
93283 97
93283 98
93283 99
93283 100
93284 1
93284 2
93284 3
93284 4
93284 5
93284 6
93284 7
93284 8
93284 9
93284 10
93284 11
93284 12
93284 13
93284 14
93284 15
93284 16
93284 17
93284 18
93284 19
93284 20
93284 21
93284 22
93284 23
93284 24
93284 25
93284 26
93284 27
93284 28
93284 29
93284 30
93284 31
93284 32
93284 33
93284 34
93284 35
93284 36
93284 37
93284 38
93284 39
93284 40
93284 41
93284 42
93284 43
93284 44
93284 45
93284 46
93284 47
93284 48
93284 49
93284 50
93284 51
93284 52
93284 53
93284 54
93284 55
93284 56
93284 57
93284 58
93284 59
93284 60
93284 61
93284 62
93284 63
93284 64
93284 65
93284 66
93284 67
93284 68
93284 69
93284 70
93284 71
93284 72
93284 73
93284 74
93284 75
93284 76
93284 77
93284 78
93284 79
93284 80
93284 81
93284 82
93284 83
93284 84
93284 85
93284 86
93284 87
93284 88
93284 89
93284 90
93284 91
93284 92
93284 93
93284 94
93284 95
93284 96
93284 97
93284 98
93284 99
93284 100
93294 59
93296 32
93297 3
93298 74
93298 76
93298 77
93298 78
93299 1
93299 3
93299 41
93302 70
93304 49
93304 76
93304 77
93305 80
93306 23
93306 78
93306 79
93307 44
93312 4
93312 24
93312 25
93312 26
93312 27
93312 66
93313 3
93315 33
93315 61
93322 51
93324 9