94089 11
94089 12
94089 13
94089 36
94089 115
94091 58
94091 85
94095 1
94095 2
94095 34
94095 97
94095 110
94095 115
94095 161
94095 175
94096 84
94097 27
94103 43
94104 48
94107 51
94107 80
94108 41
94114 41
94115 23
94118 27
94118 32
94118 51
94118 99
94119 31
94119 32
94119 67
94120 4
94120 84
94121 26
94121 51
94123 45
94123 46
94123 47
94123 49
94159 13
94160 1
94160 2
94160 5
94160 9
94160 10
94160 11
94160 12
94160 13
94160 14
94160 15
94160 17
94160 18
94160 19
94160 20
94160 21
94160 22
94160 23
94160 24
94160 25
94160 26
94160 27
94160 28
94160 29
94160 30
94160 31
94160 32
94160 33
94160 60
94160 61
94160 62
94160 63
94160 64
94160 65
94160 66
94160 67
94160 68
94160 69
94160 70
94160 72
94160 73
94160 74
94160 75
94160 76
94161 48
94178 25
94178 80
94179 140
94182 62
94183 68
94184 5
94185 12
94185 70
94186 5
94187 95
94187 96
94187 97
94187 98
94187 99
94187 100
94188 1
94188 2
94188 3
94188 4
94188 5
94188 6
94188 7
94188 8
94190 18
94190 79
94197 47
94230 1
94230 2
94230 3
94230 4
94230 5
94230 6
94230 7
94230 8
94230 9
94230 10
94230 11
94230 12
94230 13
94230 15
94230 16
94230 17
94230 18
94230 19
94230 20
94230 21
94230 22
94230 23
94230 24
94230 25
94230 26
94230 27
94230 28
94230 29
94230 30
94230 31
94230 32
94230 33
94230 34
94230 35
94230 37
94230 38
94230 39
94230 40
94230 41
94230 42
94230 43
94230 44
94230 45
94230 46
94230 47
94230 48
94230 49
94230 50
94230 51
94230 52
94230 53
94230 54
94233 64
94234 48
94234 85
94235 93
94239 62
94241 42
94246 15
94247 2
94252 43
94254 19
94261 31
94265 10
94266 31
94266 83
94266 84
94267 93
94268 58
94268 71
94272 96
94273 18
94273 92
94276 12
94277 85
94281 54
94281 85
94282 65
94298 41
94298 50
94298 89
94299 13
94299 19
94300 28
94300 39
94300 45
94300 59
94300 66
94300 82
94301 19
94318 41
94323 43
94323 66
94326 6
94341 39
94343 96
94343 99
94343 100
94345 23
94345 42
94360 40
94361 55
94362 55
94362 56
94363 2
94364 53
94365 16
94366 4
94366 48
94370 3
94370 47
94373 44
94375 33
94376 42
94384 40
94384 41
94384 42
94386 35
94391 8
94391 17
94391 20
94391 25
94392 18
94392 20
94392 31
94412 34
94414 17
94414 18
94414 29
94416 14
94472 39
94473 37
94478 37
94480 37
94519 10
94519 11
94519 12
94519 13
94519 14
94519 15
94519 16
94519 17
94519 18
94519 19
94519 20
94519 21
94519 22
94519 23
94519 24
94519 25
94519 26
94519 27
94519 28
94519 29
94519 30
94524 1
94524 2
94524 3
94524 4
94524 5
94524 6
94524 7
94524 8
94524 9
94524 10
94524 11
94524 12
94524 13
94524 14
94524 15
94524 16
94524 17
94524 18
94524 19
94524 22
94524 23
94524 24
94524 25
94524 26
94524 27
94524 28
94524 29
94524 30
94524 31
94524 32
94524 33
94524 34
94524 35
94524 36
94524 37
94524 38
94524 39
94524 40
94524 41
94524 42
94524 43
94524 44
94524 45
94524 46
94524 47
94531 1
94531 6
94531 7
94531 8
94531 9
94531 10
94531 11
94531 12
94531 15
94531 16
94531 17
94531 18
94531 19
94531 20
94531 21
94531 22
94531 25
94531 26
94531 27
94531 28
94531 29
94531 30
94531 31
94531 32
94531 33
94532 50
94534 82
94535 23
94536 44
94539 31
94539 40
94544 68
94558 36
94558 53
94558 63
94559 77
94559 96
94560 2
94560 23
94564 30
94564 41
94567 44
94572 17
94572 47
94572 63
94573 68
94574 16
94576 5
open
94089 10
94089 11
94089 12
94089 13
94089 22
94089 35
94089 36
94089 62
94089 115
94091 58
94095 1
94095 2
94095 34
94095 97
94095 105
94095 110
94095 135
94095 161
94095 175
94096 84
94097 27
94098 25
94099 2
94104 48
94104 89
94107 34
94107 91
94108 95
94113 16
94114 41
94118 27
94119 31
94119 32
94122 32
94123 25
94123 45
94123 46
94123 47
94123 48
94123 49
94159 13
94160 1
94160 2
94160 5
94160 9
94160 10
94160 11
94160 12
94160 13
94160 14
94160 15
94160 17
94160 18
94160 19
94160 20
94160 21
94160 22
94160 23
94160 24
94160 25
94160 26
94160 27
94160 28
94160 29
94160 30
94160 31
94160 32
94160 33
94160 60
94160 61
94160 62
94160 63
94160 64
94160 65
94160 66
94160 67
94160 68
94160 69
94160 70
94160 72
94160 73
94160 74
94160 75
94160 76
94161 18
94178 25
94182 11
94183 68
94184 5
94184 34
94185 70
94186 5
94187 95
94187 97
94188 3
94188 4
94194 9
94194 30
94197 52
94199 10
94199 13
94199 14
94199 21
94230 1
94230 2
94230 3
94230 4
94230 5
94230 6
94230 7
94230 8
94230 9
94230 10
94230 11
94230 12
94230 13
94230 15
94230 16
94230 17
94230 18
94230 19
94230 20
94230 21
94230 22
94230 23
94230 24
94230 25
94230 26
94230 27
94230 28
94230 29
94230 30
94230 31
94230 32
94230 33
94230 34
94230 35
94230 37
94230 38
94230 39
94230 40
94230 41
94230 42
94230 43
94230 44
94230 45
94230 46
94230 47
94230 48
94230 49
94230 50
94230 51
94230 52
94230 53
94230 54
94231 28
94235 45
94235 53
94241 7
94246 15
94247 2
94247 68
94247 78
94252 60
94254 11
94254 19
94254 20
94256 12
94265 10
94266 83
94266 84
94267 93
94268 21
94269 50
94272 96
94273 18
94273 92
94277 71
94281 52
94281 53
94281 54
94281 55
94281 85
94281 93
94282 43
94282 65
94283 86
94289 2
94289 4
94290 2
94290 7
94298 7
94298 18
94298 19
94298 41
94298 48
94298 50
94298 56
94298 57
94298 74
94298 89
94299 13
94299 19
94299 26
94299 32
94299 46
94300 23
94300 28
94300 29
94300 39
94300 45
94300 46
94300 47
94300 52
94300 53
94300 54
94300 56
94300 58
94300 59
94300 61
94300 66
94300 72
94322 6
94324 2
94324 3
94324 4
94324 5
94324 6
94324 7
94324 11
94324 12
94325 75
94325 77
94331 68
94339 20
94343 54
94343 61
94343 91
94343 92
94343 93
94343 94
94343 95
94343 96
94343 97
94343 98
94343 99
94343 100
94347 11
94360 40
94360 55
94360 56
94361 54
94361 55
94362 55
94362 56
94363 47
94363 48
94364 53
94364 54
94365 31
94365 32
94366 4
94366 46
94366 47
94366 48
94366 49
94367 40
94367 41
94370 47
94370 48
94371 45
94371 46
94372 42
94372 43
94373 13
94373 43
94373 44
94373 45
94375 31
94375 32
94375 33
94376 41
94376 42
94381 34
94381 35
94383 39
94383 40
94383 41
94384 34
94384 38
94384 39
94384 40
94384 41
94384 42
94384 43
94384 44
94386 4
94386 35
94386 36
94391 17
94391 20
94391 24
94391 25
94391 26
94392 18
94392 20
94392 25
94392 31
94392 32
94393 1
94412 33
94412 34
94414 17
94414 18
94414 29
94414 30
94416 14
94417 13
94417 14
94422 20
94422 21
94434 1
94434 5
94434 23
94434 27
94470 28
94470 29
94471 38
94471 39
94471 40
94472 38
94472 39
94473 37
94473 38
94474 7
94474 38
94474 39
94475 37
94475 38
94476 37
94477 35
94477 36
94478 37
94478 38
94479 37
94479 38
94480 36
94480 37
94519 10
94519 11
94519 12
94519 13
94519 14
94519 15
94519 16
94519 17
94519 18
94519 19
94519 20
94519 21
94519 22
94519 23
94519 24
94519 25
94519 26
94519 27
94519 28
94519 29
94519 30
94524 1
94524 2
94524 3
94524 4
94524 5
94524 6
94524 7
94524 8
94524 9
94524 10
94524 11
94524 12
94524 13
94524 14
94524 15
94524 16
94524 17
94524 18
94524 19
94524 22
94524 23
94524 24
94524 25
94524 26
94524 27
94524 28
94524 29
94524 30
94524 31
94524 32
94524 33
94524 34
94524 35
94524 36
94524 37
94524 38
94524 39
94524 40
94524 41
94524 42
94524 43
94524 44
94524 45
94524 46
94524 47
94531 1
94531 6
94531 7
94531 8
94531 9
94531 10
94531 11
94531 12
94531 15
94531 16
94531 17
94531 18
94531 19
94531 20
94531 21
94531 22
94531 25
94531 26
94531 27
94531 28
94531 29
94531 30
94531 31
94531 32
94531 33
94534 82
94535 23
94539 31
94539 40
94540 77
94544 80
94544 85
94544 98
94558 63
94560 2
94567 38
94567 44
94572 36
94573 68
94575 53
94576 90
open
94089 10
94089 11
94089 12
94089 13
94089 22
94089 35
94089 36
94089 44
94089 62
94089 115
94091 58
94091 126
94095 1
94095 2
94095 34
94095 97
94095 110
94095 161
94095 175
94096 81
94096 84
94097 27
94097 41
94098 25
94104 48
94114 41
94118 27
94119 18
94119 31
94119 32
94122 32
94123 45
94123 46
94123 47
94123 48
94123 49
94159 13
94160 1
94160 2
94160 5
94160 9
94160 10
94160 11
94160 12
94160 13
94160 14
94160 15
94160 17
94160 18
94160 19
94160 20
94160 21
94160 22
94160 23
94160 24
94160 25
94160 26
94160 27
94160 28
94160 29
94160 30
94160 31
94160 32
94160 33
94160 60
94160 61
94160 62
94160 63
94160 64
94160 65
94160 66
94160 67
94160 68
94160 69
94160 70
94160 72
94160 73
94160 74
94160 75
94160 76
94161 18
94178 25
94178 76
94179 147
94182 11
94183 68
94184 5
94185 70
94186 5
94187 95
94187 96
94187 97
94187 98
94187 99
94187 100
94188 1
94188 2
94188 3
94188 5
94188 6
94188 7
94188 8
94188 9
94194 9
94197 52
94230 1
94230 2
94230 3
94230 4
94230 5
94230 6
94230 7
94230 8
94230 9
94230 10
94230 11
94230 12
94230 13
94230 15
94230 16
94230 17
94230 18
94230 19
94230 20
94230 21
94230 22
94230 23
94230 24
94230 25
94230 26
94230 27
94230 28
94230 29
94230 30
94230 31
94230 32
94230 33
94230 34
94230 35
94230 37
94230 38
94230 39
94230 40
94230 41
94230 42
94230 43
94230 44
94230 45
94230 46
94230 47
94230 48
94230 49
94230 50
94230 51
94230 52
94230 53
94230 54
94231 12
94235 45
94241 7
94246 15
94247 2
94247 62
94251 34
94252 60
94254 11
94254 19
94254 20
94254 34
94256 12
94265 10
94266 83
94266 84
94267 93
94268 21
94269 50
94272 96
94273 18
94273 92
94277 71
94277 83
94277 98
94281 52
94281 53
94281 54
94281 55
94281 85
94281 93
94282 33
94282 43
94282 65
94282 88
94283 86
94286 1
94286 7
94286 9
94286 10
94286 12
94286 13
94289 2
94289 4
94290 2
94290 7
94298 7
94298 18
94298 19
94298 20
94298 41
94298 48
94298 50
94298 56
94298 57
94298 74
94298 89
94299 13
94299 19
94299 26
94299 32
94299 46
94300 23
94300 28
94300 29
94300 39
94300 45
94300 46
94300 47
94300 52
94300 53
94300 54
94300 58
94300 59
94300 61
94300 66
94300 72
94301 30
94318 11
94322 6
94324 2
94324 3
94324 4
94324 5
94324 6
94324 7
94324 11
94324 12
94325 75
94325 77
94326 97
94329 61
94331 47
94331 48
94331 51
94331 55
94331 60
94331 63
94331 65
94331 66
94331 67
94331 68
94339 20
94341 54
94343 54
94343 61
94343 91
94343 92
94343 93
94343 94
94343 95
94343 96
94343 97
94343 98
94343 99
94343 100
94347 11
94360 40
94360 55
94360 56
94361 54
94361 55
94362 55
94362 56
94363 47
94363 48
94364 53
94364 54
94365 31
94365 32
94366 4
94366 46
94366 47
94366 48
94366 49
94367 40
94367 41
94370 2
94370 3
94370 47
94370 48
94371 45
94371 46
94372 42
94372 43
94373 13
94373 43
94373 44
94373 45
94375 31
94375 32
94375 33
94376 41
94376 42
94381 34
94381 35
94383 39
94383 40
94383 41
94384 38
94384 39
94384 40
94384 41
94384 42
94384 43
94384 44
94386 4
94386 35
94386 36
94391 17
94391 20
94391 24
94391 25
94391 26
94392 18
94392 20
94392 31
94392 32
94393 1
94412 33
94412 34
94414 17
94414 18
94414 29
94414 30
94416 14
94417 13
94417 14
94422 20
94422 21
94434 1
94434 4
94434 13
94434 15
94434 23
94434 27
94470 28
94470 29
94471 8
94471 39
94471 40
94472 18
94472 38
94472 39
94473 37
94473 38
94474 7
94474 37
94474 38
94474 39
94475 37
94475 38
94476 37
94477 35
94477 36
94478 37
94478 38
94479 37
94479 38
94480 36
94480 37
94519 10
94519 11
94519 12
94519 13
94519 14
94519 15
94519 16
94519 17
94519 18
94519 19
94519 20
94519 21
94519 22
94519 23
94519 24
94519 25
94519 26
94519 27
94519 28
94519 29
94519 30
94524 1
94524 2
94524 3
94524 4
94524 5
94524 6
94524 7
94524 8
94524 9
94524 10
94524 11
94524 12
94524 13
94524 14
94524 15
94524 16
94524 17
94524 18
94524 19
94524 22
94524 23
94524 24
94524 25
94524 26
94524 27
94524 28
94524 29
94524 30
94524 31
94524 32
94524 33
94524 34
94524 35
94524 36
94524 37
94524 38
94524 39
94524 40
94524 41
94524 42
94524 43
94524 44
94524 45
94524 46
94524 47
94531 1
94531 6
94531 7
94531 8
94531 9
94531 10
94531 11
94531 12
94531 15
94531 16
94531 17
94531 18
94531 19
94531 20
94531 21
94531 22
94531 25
94531 26
94531 27
94531 28
94531 29
94531 30
94531 31
94531 32
94531 33
94534 40
94534 82
94535 23
94539 31
94539 40
94544 80
94544 85
94544 98
94545 47
94545 59
94546 11
94558 7
94558 63
94560 2
94564 84
94567 44
94572 36
94573 68
open
94089 10
94089 11
94089 12
94089 13
94089 22
94089 36
94089 115
94091 58
94095 1
94095 2
94095 34
94095 97
94095 110
94095 161
94095 175
94096 84
94097 27
94102 41
94104 48
94105 40
94107 84
94114 41
94118 27
94118 31
94119 31
94119 32
94120 57
94122 32
94123 45
94123 46
94123 47
94123 48
94123 49
94159 13
94160 1
94160 2
94160 5
94160 9
94160 10
94160 11
94160 12
94160 13
94160 14
94160 15
94160 17
94160 18
94160 19
94160 20
94160 21
94160 22
94160 23
94160 24
94160 25
94160 26
94160 27
94160 28
94160 29
94160 30
94160 31
94160 32
94160 33
94160 60
94160 61
94160 62
94160 63
94160 64
94160 65
94160 66
94160 67
94160 68
94160 69
94160 70
94160 72
94160 73
94160 74
94160 75
94160 76
94161 18
94178 25
94178 51
94178 76
94183 68
94183 70
94184 5
94185 70
94186 2
94186 5
94187 95
94187 97
94188 9
94191 39
94194 9
94197 98
94230 1
94230 2
94230 3
94230 4
94230 5
94230 6
94230 7
94230 8
94230 9
94230 10
94230 11
94230 12
94230 13
94230 15
94230 16
94230 17
94230 18
94230 19
94230 20
94230 21
94230 22
94230 23
94230 24
94230 25
94230 26
94230 27
94230 28
94230 29
94230 30
94230 31
94230 32
94230 33
94230 34
94230 35
94230 37
94230 38
94230 39
94230 40
94230 41
94230 42
94230 43
94230 44
94230 45
94230 46
94230 47
94230 48
94230 49
94230 50
94230 51
94230 52
94230 53
94230 54
94246 15
94247 2
94254 11
94256 12
94265 10
94265 98
94266 83
94267 26
94267 93
94268 21
94272 96
94273 18
94273 92
94277 83
94278 19
94280 15
94281 52
94281 54
94281 85
94282 65
94282 88
94289 2
94290 2
94290 7
94298 7
94298 18
94298 19
94298 22
94298 41
94298 48
94298 50
94298 56
94298 89
94299 13
94299 19
94299 46
94300 23
94300 28
94300 29
94300 39
94300 45
94300 46
94300 54
94300 59
94300 61
94300 66
94317 26
94322 6
94326 29
94327 66
94331 9
94339 20
94343 61
94343 92
94343 93
94343 94
94343 95
94343 96
94343 97
94343 98
94343 99
94343 100
94360 40
94360 55
94360 56
94361 54
94361 55
94362 55
94362 56
94363 15
94363 48
94364 53
94364 54
94365 31
94365 32
94366 4
94366 46
94366 47
94366 48
94366 49
94367 40
94367 41
94370 47
94370 48
94371 45
94371 46
94372 42
94372 43
94373 13
94373 31
94373 44
94373 45
94375 31
94375 32
94375 33
94376 41
94376 42
94381 34
94381 35
94383 39
94383 40
94383 41
94384 38
94384 39
94384 40
94384 41
94384 42
94384 43
94384 44
94386 4
94386 35
94386 36
94391 17
94391 20
94391 24
94391 25
94391 26
94392 18
94392 20
94392 31
94392 32
94393 1
94412 33
94412 34
94414 17
94414 18
94414 29
94414 30
94416 14
94417 13
94417 14
94422 20
94422 21
94434 27
94470 28
94470 29
94471 39
94471 40
94472 38
94472 39
94473 37
94473 38
94474 37
94474 38
94474 39
94475 37
94475 38
94476 2
94476 37
94477 35
94477 36
94478 37
94478 38
94479 37
94479 38
94480 36
94480 37
94519 10
94519 11
94519 12
94519 13
94519 14
94519 15
94519 16
94519 17
94519 18
94519 19
94519 20
94519 21
94519 22
94519 23
94519 24
94519 25
94519 26
94519 27
94519 28
94519 29
94519 30
94524 1
94524 2
94524 3
94524 4
94524 5
94524 6
94524 7
94524 8
94524 9
94524 10
94524 11
94524 12
94524 13
94524 14
94524 15
94524 16
94524 17
94524 18
94524 19
94524 22
94524 23
94524 24
94524 25
94524 26
94524 27
94524 28
94524 29
94524 30
94524 31
94524 32
94524 33
94524 34
94524 35
94524 36
94524 37
94524 38
94524 39
94524 40
94524 41
94524 42
94524 43
94524 44
94524 45
94524 46
94524 47
94531 1
94531 6
94531 7
94531 8
94531 9
94531 10
94531 11
94531 12
94531 15
94531 16
94531 17
94531 18
94531 19
94531 20
94531 21
94531 22
94531 25
94531 26
94531 27
94531 28
94531 29
94531 30
94531 31
94531 32
94531 33
94534 82
94535 23
94535 95
94538 16
94539 31
94539 40
94544 85
94544 98
94545 59
94546 11
94558 63
94559 25
94560 2
94561 27
94564 91
94567 44
94573 68
open
94089 4
94089 10
94089 11
94089 12
94089 13
94089 22
94089 31
94089 35
94089 36
94089 45
94089 115
94091 58
94091 104
94091 126
94095 1
94095 2
94095 34
94095 97
94095 110
94095 161
94095 175
94096 84
94097 27
94099 67
94100 54
94104 48
94108 38
94114 41
94114 56
94118 27
94119 31
94119 32
94122 22
94122 32
94123 45
94123 46
94123 47
94123 48
94123 49
94159 13
94160 1
94160 2
94160 5
94160 9
94160 10
94160 11
94160 12
94160 13
94160 14
94160 15
94160 17
94160 18
94160 19
94160 20
94160 21
94160 22
94160 23
94160 24
94160 25
94160 26
94160 27
94160 28
94160 29
94160 30
94160 31
94160 32
94160 33
94160 60
94160 61
94160 62
94160 63
94160 64
94160 65
94160 66
94160 67
94160 68
94160 69
94160 70
94160 72
94160 73
94160 74
94160 75
94160 76
94161 18
94178 25
94178 76
94181 184
94183 68
94184 5
94184 66
94185 70
94186 5
94187 13
94187 96
94187 97
94187 98
94187 100
94188 1
94188 2
94188 3
94188 4
94188 5
94188 6
94188 7
94188 8
94188 9
94194 9
94194 29
94194 30
94199 14
94230 1
94230 2
94230 3
94230 4
94230 5
94230 6
94230 7
94230 8
94230 9
94230 10
94230 11
94230 12
94230 13
94230 15
94230 16
94230 17
94230 18
94230 19
94230 20
94230 21
94230 22
94230 23
94230 24
94230 25
94230 26
94230 27
94230 28
94230 29
94230 30
94230 31
94230 32
94230 33
94230 34
94230 35
94230 37
94230 38
94230 39
94230 40
94230 41
94230 42
94230 43
94230 44
94230 45
94230 46
94230 47
94230 48
94230 49
94230 50
94230 51
94230 52
94230 53
94230 54
94233 49
94235 45
94235 94
94241 18
94242 24
94246 15
94247 2
94252 60
94254 11
94254 19
94256 12
94265 10
94266 83
94266 84
94267 93
94268 21
94272 96
94273 18
94273 92
94281 53
94281 54
94281 64
94281 85
94281 93
94282 43
94282 65
94283 84
94283 86
94286 15
94289 2
94289 4
94290 2
94290 7
94298 7
94298 18
94298 19
94298 41
94298 48
94298 50
94298 56
94298 57
94298 74
94298 88
94298 89
94299 8
94299 9
94299 13
94299 19
94299 20
94299 32
94299 46
94300 23
94300 28
94300 29
94300 39
94300 45
94300 46
94300 47
94300 52
94300 53
94300 54
94300 58
94300 59
94300 61
94300 66
94323 4
94331 39
94339 20
94343 61
94343 91
94343 92
94343 93
94343 94
94343 95
94343 96
94343 97
94343 98
94343 99
94343 100
94347 11
94358 76
94360 40
94360 55
94360 56
94361 53
94361 54
94361 55
94362 54
94362 55
94362 56
94363 47
94363 48
94364 53
94364 54
94365 31
94365 32
94366 4
94366 46
94366 47
94366 48
94366 49
94367 40
94367 41
94370 47
94370 48
94371 45
94371 46
94372 42
94372 43
94373 13
94373 43
94373 44
94373 45
94375 31
94375 32
94375 33
94376 41
94376 42
94381 34
94381 35
94383 39
94383 40
94383 41
94384 38
94384 39
94384 40
94384 41
94384 42
94384 43
94384 44
94386 4
94386 35
94386 36
94391 17
94391 20
94391 24
94391 25
94391 26
94392 11
94392 18
94392 20
94392 31
94392 32
94393 1
94412 33
94412 34
94414 17
94414 18
94414 29
94414 30
94416 14
94417 13
94417 14
94422 20
94422 21
94434 3
94434 19
94434 22
94434 23
94434 27
94470 28
94470 29
94471 39
94471 40
94472 38
94472 39
94473 13
94473 37
94473 38
94474 7
94474 38
94474 39
94475 37
94475 38
94476 37
94477 35
94477 36
94478 37
94478 38
94479 37
94479 38
94480 36
94480 37
94519 10
94519 11
94519 12
94519 13
94519 14
94519 15
94519 16
94519 17
94519 18
94519 19
94519 20
94519 21
94519 22
94519 23
94519 24
94519 25
94519 26
94519 27
94519 28
94519 29
94519 30
94524 1
94524 2
94524 3
94524 4
94524 5
94524 6
94524 7
94524 8
94524 9
94524 10
94524 11
94524 12
94524 13
94524 14
94524 15
94524 16
94524 17
94524 18
94524 19
94524 22
94524 23
94524 24
94524 25
94524 26
94524 27
94524 28
94524 29
94524 30
94524 31
94524 32
94524 33
94524 34
94524 35
94524 36
94524 37
94524 38
94524 39
94524 40
94524 41
94524 42
94524 43
94524 44
94524 45
94524 46
94524 47
94531 1
94531 6
94531 7
94531 8
94531 9
94531 10
94531 11
94531 12
94531 15
94531 16
94531 17
94531 18
94531 19
94531 20
94531 21
94531 22
94531 25
94531 26
94531 27
94531 28
94531 29
94531 30
94531 31
94531 32
94531 33
94534 74
94534 82
94535 23
94535 82
94539 31
94539 40
94542 12
94544 85
94544 98
94545 47
94545 59
94546 11
94558 7
94558 63
94560 2
94563 8
94565 1
94567 38
94567 44
94568 52
94568 57
94573 68
94574 2
open
94089 10
94089 11
94089 12
94089 13
94089 22
94089 35
94089 36
94089 115
94091 58
94095 1
94095 2
94095 34
94095 97
94095 110
94095 161
94095 175
94096 84
94097 27
94102 13
94104 48
94108 5
94109 94
94114 41
94119 31
94119 32
94119 89
94123 45
94123 46
94123 47
94123 48
94123 49
94159 13
94160 1
94160 2
94160 5
94160 9
94160 10
94160 11
94160 12
94160 13
94160 14
94160 15
94160 17
94160 18
94160 19
94160 20
94160 21
94160 22
94160 23
94160 24
94160 25
94160 26
94160 27
94160 28
94160 29
94160 30
94160 31
94160 32
94160 33
94160 60
94160 61
94160 62
94160 63
94160 64
94160 65
94160 66
94160 67
94160 68
94160 69
94160 70
94160 72
94160 73
94160 74
94160 75
94160 76
94161 18
94161 73
94178 25
94183 68
94184 5
94185 32
94185 70
94186 5
94188 9
94194 9
94194 30
94199 20
94230 1
94230 2
94230 3
94230 4
94230 5
94230 6
94230 7
94230 8
94230 9
94230 10
94230 11
94230 12
94230 13
94230 15
94230 16
94230 17
94230 18
94230 19
94230 20
94230 21
94230 22
94230 23
94230 24
94230 25
94230 26
94230 27
94230 28
94230 29
94230 30
94230 31
94230 32
94230 33
94230 34
94230 35
94230 37
94230 38
94230 39
94230 40
94230 41
94230 42
94230 43
94230 44
94230 45
94230 46
94230 47
94230 48
94230 49
94230 50
94230 51
94230 52
94230 53
94230 54
94233 77
94246 15
94247 2
94247 68
94254 11
94254 19
94256 12
94265 10
94266 83
94266 84
94267 93
94268 21
94269 50
94272 96
94273 18
94273 92
94277 83
94281 19
94281 52
94281 53
94281 54
94281 85
94282 43
94282 63
94282 65
94282 74
94289 2
94290 2
94290 7
94298 7
94298 18
94298 19
94298 41
94298 48
94298 50
94298 56
94298 74
94298 89
94299 13
94299 19
94299 26
94299 32
94299 46
94300 23
94300 28
94300 29
94300 39
94300 45
94300 46
94300 47
94300 52
94300 54
94300 58
94300 59
94300 61
94324 2
94324 3
94324 5
94325 75
94325 77
94339 20
94343 61
94343 91
94343 92
94343 93
94343 94
94343 95
94343 96
94343 97
94343 98
94343 99
94343 100
94347 11
94360 40
94360 55
94360 56
94361 54
94361 55
94362 55
94362 56
94363 47
94363 48
94364 53
94364 54
94365 31
94365 32
94366 4
94366 46
94366 47
94366 48
94366 49
94367 40
94367 41
94368 8
94370 22
94370 47
94370 48
94371 45
94371 46
94372 42
94372 43
94373 13
94373 43
94373 44
94373 45
94375 31
94375 32
94375 33
94376 41
94376 42
94381 34
94381 35
94383 39
94383 40
94383 41
94384 38
94384 39
94384 40
94384 41
94384 42
94384 43
94384 44
94386 35
94386 36
94391 15
94391 17
94391 20
94391 24
94391 25
94391 26
94392 18
94392 20
94392 31
94392 32
94393 1
94412 33
94412 34
94414 17
94414 18
94414 29
94414 30
94416 14
94417 13
94417 14
94422 20
94422 21
94434 27
94470 28
94470 29
94471 38
94471 39
94471 40
94472 38
94472 39
94473 37
94473 38
94474 38
94474 39
94475 37
94475 38
94476 22
94476 37
94477 35
94477 36
94478 37
94478 38
94479 37
94479 38
94480 36
94480 37
94519 10
94519 11
94519 12
94519 13
94519 14
94519 15
94519 16
94519 17
94519 18
94519 19
94519 20
94519 21
94519 22
94519 23
94519 24
94519 25
94519 26
94519 27
94519 28
94519 29
94519 30
94524 1
94524 2
94524 3
94524 4
94524 5
94524 6
94524 7
94524 8
94524 9
94524 10
94524 11
94524 12
94524 13
94524 14
94524 15
94524 16
94524 17
94524 18
94524 19
94524 22
94524 23
94524 24
94524 25
94524 26
94524 27
94524 28
94524 29
94524 30
94524 31
94524 32
94524 33
94524 34
94524 35
94524 36
94524 37
94524 38
94524 39
94524 40
94524 41
94524 42
94524 43
94524 44
94524 45
94524 46
94524 47
94531 1
94531 6
94531 7
94531 8
94531 9
94531 10
94531 11
94531 12
94531 15
94531 16
94531 17
94531 18
94531 19
94531 20
94531 21
94531 22
94531 25
94531 26
94531 27
94531 28
94531 29
94531 30
94531 31
94531 32
94531 33
94534 82
94535 23
94539 31
94539 40
94544 85
94544 98
94545 47
94558 63
94559 49
94560 2
94567 44
94573 68
open
94089 10
94089 11
94089 12
94089 13
94089 22
94089 35
94089 36
94089 115
94091 58
94091 126
94095 1
94095 2
94095 34
94095 97
94095 110
94095 161
94095 175
94096 84
94097 27
94104 48
94114 41
94118 27
94119 31
94119 32
94122 32
94123 45
94123 46
94123 47
94123 48
94123 49
94159 13
94160 1
94160 2
94160 5
94160 9
94160 10
94160 11
94160 12
94160 13
94160 14
94160 15
94160 17
94160 18
94160 19
94160 20
94160 21
94160 22
94160 23
94160 24
94160 25
94160 26
94160 27
94160 28
94160 29
94160 30
94160 31
94160 32
94160 33
94160 60
94160 61
94160 62
94160 63
94160 64
94160 65
94160 66
94160 67
94160 68
94160 69
94160 70
94160 72
94160 73
94160 74
94160 75
94160 76
94161 18
94178 25
94178 51
94183 68
94184 5
94185 70
94186 5
94187 97
94188 4
94194 9
94194 30
94197 52
94199 10
94199 14
94230 1
94230 2
94230 3
94230 4
94230 5
94230 6
94230 7
94230 8
94230 9
94230 10
94230 11
94230 12
94230 13
94230 15
94230 16
94230 17
94230 18
94230 19
94230 20
94230 21
94230 22
94230 23
94230 24
94230 25
94230 26
94230 27
94230 28
94230 29
94230 30
94230 31
94230 32
94230 33
94230 34
94230 35
94230 37
94230 38
94230 39
94230 40
94230 41
94230 42
94230 43
94230 44
94230 45
94230 46
94230 47
94230 48
94230 49
94230 50
94230 51
94230 52
94230 53
94230 54
94235 45
94241 7
94246 15
94247 2
94247 62
94251 34
94252 60
94254 11
94254 19
94254 20
94256 12
94264 18
94265 10
94266 83
94266 84
94267 93
94268 21
94269 50
94272 96
94273 18
94273 92
94278 19
94281 52
94281 53
94281 54
94281 55
94281 85
94281 93
94282 43
94282 65
94282 88
94283 86
94286 15
94289 2
94289 4
94290 2
94290 7
94298 7
94298 18
94298 19
94298 20
94298 41
94298 48
94298 50
94298 56
94298 57
94298 74
94298 88
94298 89
94299 13
94299 19
94299 26
94299 32
94299 46
94300 23
94300 28
94300 29
94300 39
94300 45
94300 46
94300 47
94300 52
94300 53
94300 54
94300 56
94300 58
94300 59
94300 61
94300 66
94318 11
94322 6
94324 2
94324 3
94324 4
94324 6
94324 7
94324 12
94325 77
94331 68
94339 20
94343 61
94343 91
94343 92
94343 93
94343 94
94343 95
94343 96
94343 97
94343 98
94343 99
94343 100
94347 11
94360 40
94360 55
94360 56
94361 54
94361 55
94362 55
94362 56
94363 47
94363 48
94364 53
94364 54
94365 31
94365 32
94366 4
94366 46
94366 47
94366 48
94366 49
94367 40
94367 41
94370 47
94370 48
94371 45
94371 46
94372 42
94372 43
94373 13
94373 43
94373 44
94373 45
94375 31
94375 32
94375 33
94376 18
94376 41
94376 42
94381 34
94381 35
94383 39
94383 40
94383 41
94384 38
94384 39
94384 40
94384 41
94384 42
94384 43
94384 44
94386 4
94386 35
94386 36
94391 15
94391 17
94391 20
94391 24
94391 25
94391 26
94392 18
94392 20
94392 31
94392 32
94393 1
94412 33
94412 34
94414 17
94414 18
94414 29
94414 30
94416 14
94417 13
94417 14
94422 20
94422 21
94434 1
94434 5
94434 23
94434 27
94470 28
94470 29
94471 8
94471 38
94471 39
94471 40
94472 38
94472 39
94473 37
94473 38
94474 7
94474 37
94474 38
94474 39
94475 37
94475 38
94476 37
94477 35
94477 36
94478 37
94478 38
94479 37
94479 38
94480 36
94480 37
94519 10
94519 11
94519 12
94519 13
94519 14
94519 15
94519 16
94519 17
94519 18
94519 19
94519 20
94519 21
94519 22
94519 23
94519 24
94519 25
94519 26
94519 27
94519 28
94519 29
94519 30
94524 1
94524 2
94524 3
94524 4
94524 5
94524 6
94524 7
94524 8
94524 9
94524 10
94524 11
94524 12
94524 13
94524 14
94524 15
94524 16
94524 17
94524 18
94524 19
94524 22
94524 23
94524 24
94524 25
94524 26
94524 27
94524 28
94524 29
94524 30
94524 31
94524 32
94524 33
94524 34
94524 35
94524 36
94524 37
94524 38
94524 39
94524 40
94524 41
94524 42
94524 43
94524 44
94524 45
94524 46
94524 47
94531 1
94531 6
94531 7
94531 8
94531 9
94531 10
94531 11
94531 12
94531 15
94531 16
94531 17
94531 18
94531 19
94531 20
94531 21
94531 22
94531 25
94531 26
94531 27
94531 28
94531 29
94531 30
94531 31
94531 32
94531 33
94534 82
94535 23
94539 31
94539 40
94544 80
94544 85
94544 98
94545 47
94545 59
94546 11
94558 63
94560 2
94567 38
94567 44
94573 68
open
94089 22
94089 36
94089 115
94091 58
94095 2
94095 34
94095 97
94095 110
94095 161
94095 175
94096 81
94096 84
94097 27
94101 87
94104 48
94114 41
94118 27
94119 31
94119 32
94122 32
94123 46
94123 47
94123 48
94123 49
94159 13
94160 1
94160 2
94160 5
94160 9
94160 10
94160 11
94160 12
94160 13
94160 14
94160 15
94160 17
94160 18
94160 19
94160 20
94160 21
94160 22
94160 23
94160 24
94160 25
94160 26
94160 27
94160 28
94160 29
94160 30
94160 31
94160 32
94160 33
94160 60
94160 61
94160 62
94160 63
94160 64
94160 65
94160 66
94160 67
94160 68
94160 69
94160 70
94160 72
94160 73
94160 74
94160 75
94160 76
94161 18
94178 25
94183 68
94184 5
94185 70
94185 79
94186 5
94187 95
94187 96
94187 97
94187 98
94187 99
94187 100
94188 1
94188 2
94188 3
94188 4
94188 5
94188 6
94188 7
94188 8
94188 9
94188 10
94194 9
94194 30
94230 1
94230 2
94230 3
94230 4
94230 5
94230 6
94230 7
94230 8
94230 9
94230 10
94230 11
94230 12
94230 13
94230 15
94230 16
94230 17
94230 18
94230 19
94230 20
94230 21
94230 22
94230 23
94230 24
94230 25
94230 26
94230 27
94230 28
94230 29
94230 30
94230 31
94230 32
94230 33
94230 34
94230 35
94230 37
94230 38
94230 39
94230 40
94230 41
94230 42
94230 43
94230 44
94230 45
94230 46
94230 47
94230 48
94230 49
94230 50
94230 51
94230 52
94230 53
94230 54
94234 68
94246 15
94247 2
94254 11
94254 19
94254 20
94256 12
94265 10
94266 83
94267 93
94268 21
94272 96
94273 18
94273 92
94281 53
94281 54
94281 55
94281 85
94282 43
94282 65
94282 88
94283 86
94289 2
94289 4
94289 13
94290 2
94290 7
94298 7
94298 18
94298 19
94298 41
94298 48
94298 50
94298 56
94298 57
94298 70
94298 74
94298 88
94298 89
94299 13
94299 19
94299 26
94299 32
94299 46
94300 23
94300 28
94300 29
94300 39
94300 45
94300 46
94300 47
94300 52
94300 53
94300 54
94300 56
94300 58
94300 59
94300 61
94300 66
94303 78
94322 6
94324 12
94339 20
94343 92
94343 93
94343 94
94343 95
94343 96
94343 98
94343 99
94343 100
94347 11
94360 40
94360 55
94360 56
94361 54
94361 55
94364 53
94364 54
94365 32
94366 4
94366 47
94366 48
94366 49
94367 40
94367 41
94370 47
94370 48
94371 46
94372 42
94373 43
94373 44
94373 45
94375 32
94375 33
94376 41
94376 42
94381 34
94381 35
94383 40
94383 41
94384 39
94384 40
94384 41
94384 42
94386 4
94386 35
94386 36
94391 17
94391 20
94391 25
94391 26
94392 18
94392 20
94392 32
94393 1
94412 33
94412 34
94414 17
94414 18
94414 29
94416 14
94417 13
94422 21
94434 1
94434 2
94434 3
94434 5
94434 7
94434 11
94434 12
94434 14
94434 15
94434 19
94434 23
94434 27
94470 28
94471 40
94472 39
94473 37
94473 38
94474 38
94474 39
94475 37
94475 38
94476 37
94477 36
94478 37
94478 38
94479 37
94480 36
94480 37
94519 10
94519 11
94519 12
94519 13
94519 14
94519 15
94519 16
94519 17
94519 18
94519 19
94519 20
94519 21
94519 22
94519 23
94519 24
94519 25
94519 26
94519 27
94519 28
94519 29
94519 30
94524 1
94524 2
94524 3
94524 4
94524 5
94524 6
94524 7
94524 8
94524 9
94524 10
94524 11
94524 12
94524 13
94524 14
94524 15
94524 16
94524 17
94524 18
94524 19
94524 22
94524 23
94524 24
94524 25
94524 26
94524 27
94524 28
94524 29
94524 30
94524 31
94524 32
94524 33
94524 34
94524 35
94524 36
94524 37
94524 38
94524 39
94524 40
94524 41
94524 42
94524 43
94524 44
94524 45
94524 46
94524 47
94531 1
94531 6
94531 7
94531 8
94531 9
94531 10
94531 11
94531 12
94531 15
94531 16
94531 17
94531 18
94531 19
94531 20
94531 21
94531 22
94531 25
94531 26
94531 27
94531 28
94531 29
94531 30
94531 31
94531 32
94531 33
94534 82
94535 23
94539 31
94539 40
94546 11
94558 63
94560 2
94560 100
94567 44
94573 68
94575 53